audio,categoria,seguridad,predict
A=CERw=15000t=0000f=000r=221.wav,_000,82.72,1
A=FERw=15000t=0000f=000r=212.wav,_000,67.36,1
A=FERw=15000t=0000f=000r=231.wav,_000,100.0,1
A=FERw=15000t=0000f=000r=235.wav,_000,99.1,1
A=FERw=15000t=0000f=000r=236.wav,_000,99.54,1
A=FERw=15000t=0000f=000r=239.wav,_000,99.0,1
A=FERw=15000t=0000f=000r=243.wav,_000,99.96,1
A=FERw=15000t=0000f=000r=244.wav,_000,99.4,1
A=FERw=15000t=0000f=000r=245.wav,_000,6.94,1
A=FERw=15000t=0000f=000r=249.wav,_000,100.0,1
A=FERw=15000t=0000f=000r=257.wav,_000,99.94,1
A=FERw=15000t=0000f=000r=259.wav,_000,97.88,1
A=FERw=15000t=0000f=000r=266.wav,_000,100.0,1
A=FERw=15000t=0000f=000r=267.wav,_000,82.34,1
A=FERw=15000t=0000f=000r=273.wav,_000,15.2,1
A=FERw=15000t=0000f=000r=278.wav,_000,100.0,1
A=FERw=15000t=0000f=000r=290.wav,_000,99.96,1
A=FERw=15000t=0000f=000r=291.wav,_000,99.44,1
A=FERw=15000t=0000f=000r=292.wav,_000,91.86,1
A=FERw=15000t=0000f=000r=298.wav,_000,99.87,1
A=FERw=15000t=0000f=000r=299.wav,_000,79.8,1
A=FERw=15000t=0000f=000r=300.wav,_000,98.0,1
A=FERw=15000t=0000f=000r=301.wav,_000,89.48,1
A=FERw=15000t=0000f=000r=306.wav,_000,100.0,1
A=FERw=15000t=0000f=000r=307.wav,_000,11.08,1
A=FERw=15000t=0000f=000r=308.wav,_000,99.98,1
A=FERw=15000t=0000f=000r=309.wav,_000,98.22,1
A=FERw=15000t=0000f=000r=310.wav,_000,100.0,1
A=FERw=15000t=0000f=000r=311.wav,_000,100.0,1
A=FERw=15000t=0000f=000r=312.wav,_000,83.62,1
A=FERw=15000t=0000f=000r=313.wav,_000,74.2,1
A=FERw=15000t=0000f=000r=315.wav,_000,100.0,1
A=FERw=15000t=0000f=000r=316.wav,_000,100.0,1
A=FERw=15000t=0000f=000r=317.wav,_000,97.24,1
A=FERw=15000t=0000f=000r=318.wav,_000,100.0,1
A=FERw=15000t=0000f=000r=320.wav,_000,100.0,1
A=FERw=15000t=0000f=000r=321.wav,_000,99.26,1
A=FERw=15000t=0000f=000r=322.wav,_000,85.36,1
A=FERw=15000t=0000f=000r=324.wav,_000,100.0,1
A=FERw=15000t=0000f=000r=326.wav,_000,100.0,1
A=FERw=15000t=0000f=000r=327.wav,_000,100.0,1
A=FERw=15000t=0000f=000r=329.wav,_000,100.0,1
A=FERw=15000t=0000f=000r=330.wav,_000,100.0,1
A=FERw=15000t=0000f=000r=332.wav,_000,87.08,1
A=FERw=15000t=0000f=000r=336.wav,_000,87.36,1
A=FERw=15000t=0000f=000r=339.wav,_000,9.72,1
A=FERw=15000t=0000f=000r=340.wav,_000,99.98,1
A=FERw=15000t=0000f=000r=341.wav,_000,98.98,1
A=FERw=15000t=0000f=000r=343.wav,_000,100.0,1
A=FERw=15000t=0000f=000r=347.wav,_000,99.58,1
A=FERw=15000t=0000f=000r=349.wav,_000,100.0,1
A=FERw=15000t=0000f=000r=350.wav,_000,99.8,1
A=FERw=15000t=0000f=000r=351.wav,_000,98.6,1
A=FERw=15000t=0000f=000r=352.wav,_000,100.0,1
A=FERw=15000t=0000f=000r=355.wav,_000,93.98,1
A=FERw=15000t=0000f=000r=357.wav,_000,100.0,1
A=FERw=15000t=0000f=000r=358.wav,_000,100.0,1
A=FERw=15000t=0000f=000r=359.wav,_000,62.38,1
A=FERw=15000t=0000f=000r=360.wav,_000,80.18,1
A=FERw=15000t=0000f=000r=361.wav,_000,100.0,1
A=FERw=15000t=0000f=000r=362.wav,_000,87.52,1
A=FERw=15000t=0000f=000r=364.wav,_000,100.0,1
A=FERw=15000t=0000f=000r=366.wav,_000,97.54,1
A=FERw=15000t=0000f=000r=376.wav,_000,99.74,1
A=FERw=15000t=0000f=000r=377.wav,_000,90.98,1
A=FERw=15000t=0000f=000r=378.wav,_000,99.28,1
A=FERw=15000t=0000f=000r=385.wav,_000,97.44,1
A=FERw=15000t=0000f=000r=399.wav,_000,83.44,1
A=FERw=15000t=0000f=000r=401.wav,_000,100.0,1
A=FERw=15000t=0000f=000r=402.wav,_000,100.0,1
A=ge1w=15000t=~f=000r=264.wav,_000,13.96,1
A=ge1w=15000t=~f=000r=349.wav,_000,100.0,1
A=ge1w=15000t=~f=000r=350.wav,_000,100.0,1
A=ge1w=15000t=~f=000r=351.wav,_000,73.62,1
A=ge1w=15000t=~f=000r=352.wav,_000,61.68,1
A=gr5w=15000t=00000f=000r=27.wav,_000,99.88,1
A=gr5w=15000t=00000f=000r=30.wav,_000,10.38,1
A=gr5w=15000t=00000f=000r=32.wav,_000,77.22,1
A=gr5w=15000t=00000f=000r=33.wav,_000,85.32,1
A=gr5w=15000t=15000f=000r=17.wav,_000,56.02,1
A=FERw=15000t=0000f=010r=10.wav,_010,100.0,1
A=FERw=15000t=0000f=010r=100.wav,_010,99.94,1
A=FERw=15000t=0000f=010r=101.wav,_010,99.94,1
A=FERw=15000t=0000f=010r=102.wav,_010,100.0,1
A=FERw=15000t=0000f=010r=103.wav,_010,99.96,1
A=FERw=15000t=0000f=010r=104.wav,_010,100.0,1
A=FERw=15000t=0000f=010r=105.wav,_010,100.0,1
A=FERw=15000t=0000f=010r=106.wav,_010,100.0,1
A=FERw=15000t=0000f=010r=107.wav,_010,100.0,1
A=FERw=15000t=0000f=010r=108.wav,_010,100.0,1
A=FERw=15000t=0000f=010r=109.wav,_010,100.0,1
A=FERw=15000t=0000f=010r=11.wav,_010,99.84,1
A=FERw=15000t=0000f=010r=110.wav,_010,100.0,1
A=FERw=15000t=0000f=010r=111.wav,_010,100.0,1
A=FERw=15000t=0000f=010r=112.wav,_010,100.0,1
A=FERw=15000t=0000f=010r=113.wav,_010,100.0,1
A=FERw=15000t=0000f=010r=114.wav,_010,100.0,1
A=FERw=15000t=0000f=010r=115.wav,_010,99.46,1
A=FERw=15000t=0000f=010r=116.wav,_010,100.0,1
A=FERw=15000t=0000f=010r=117.wav,_010,100.0,1
A=FERw=15000t=0000f=010r=118.wav,_010,99.94,1
A=FERw=15000t=0000f=010r=119.wav,_010,99.96,1
A=FERw=15000t=0000f=010r=12.wav,_010,100.0,1
A=FERw=15000t=0000f=010r=120.wav,_010,100.0,1
A=FERw=15000t=0000f=010r=121.wav,_010,100.0,1
A=FERw=15000t=0000f=010r=122.wav,_010,99.98,1
A=FERw=15000t=0000f=010r=123.wav,_010,99.96,1
A=FERw=15000t=0000f=010r=124.wav,_010,99.98,1
A=FERw=15000t=0000f=010r=125.wav,_010,99.7,1
A=FERw=15000t=0000f=010r=126.wav,_010,99.98,1
A=FERw=15000t=0000f=010r=127.wav,_010,100.0,1
A=FERw=15000t=0000f=010r=128.wav,_010,100.0,1
A=FERw=15000t=0000f=010r=129.wav,_010,99.5,1
A=FERw=15000t=0000f=010r=13.wav,_010,100.0,1
A=FERw=15000t=0000f=010r=130.wav,_010,100.0,1
A=FERw=15000t=0000f=010r=131.wav,_010,99.14,1
A=FERw=15000t=0000f=010r=132.wav,_010,99.98,1
A=FERw=15000t=0000f=010r=133.wav,_010,100.0,1
A=FERw=15000t=0000f=010r=134.wav,_010,99.88,1
A=FERw=15000t=0000f=010r=135.wav,_010,99.96,1
A=FERw=15000t=0000f=010r=136.wav,_010,100.0,1
A=FERw=15000t=0000f=010r=137.wav,_010,100.0,1
A=FERw=15000t=0000f=010r=138.wav,_010,100.0,1
A=FERw=15000t=0000f=010r=139.wav,_010,100.0,1
A=FERw=15000t=0000f=010r=14.wav,_010,99.78,1
A=FERw=15000t=0000f=010r=140.wav,_010,100.0,1
A=FERw=15000t=0000f=010r=141.wav,_010,100.0,1
A=FERw=15000t=0000f=010r=142.wav,_010,100.0,1
A=FERw=15000t=0000f=010r=143.wav,_010,100.0,1
A=FERw=15000t=0000f=010r=144.wav,_010,100.0,1
A=FERw=15000t=0000f=010r=145.wav,_010,100.0,1
A=FERw=15000t=0000f=010r=146.wav,_010,100.0,1
A=FERw=15000t=0000f=010r=147.wav,_010,100.0,1
A=FERw=15000t=0000f=010r=148.wav,_010,100.0,1
A=FERw=15000t=0000f=010r=149.wav,_010,100.0,1
A=FERw=15000t=0000f=010r=15.wav,_010,91.66,1
A=FERw=15000t=0000f=010r=150.wav,_010,100.0,1
A=FERw=15000t=0000f=010r=151.wav,_010,100.0,1
A=FERw=15000t=0000f=010r=152.wav,_010,100.0,1
A=FERw=15000t=0000f=010r=153.wav,_010,100.0,1
A=FERw=15000t=0000f=010r=154.wav,_010,100.0,1
A=FERw=15000t=0000f=010r=155.wav,_010,100.0,1
A=FERw=15000t=0000f=010r=156.wav,_010,100.0,1
A=FERw=15000t=0000f=010r=157.wav,_010,100.0,1
A=FERw=15000t=0000f=010r=158.wav,_010,100.0,1
A=FERw=15000t=0000f=010r=159.wav,_010,100.0,1
A=FERw=15000t=0000f=010r=16.wav,_010,26.52,1
A=FERw=15000t=0000f=010r=160.wav,_010,100.0,1
A=FERw=15000t=0000f=010r=161.wav,_010,100.0,1
A=FERw=15000t=0000f=010r=162.wav,_010,100.0,1
A=FERw=15000t=0000f=010r=163.wav,_010,100.0,1
A=FERw=15000t=0000f=010r=164.wav,_010,100.0,1
A=FERw=15000t=0000f=010r=165.wav,_010,100.0,1
A=FERw=15000t=0000f=010r=166.wav,_010,100.0,1
A=FERw=15000t=0000f=010r=167.wav,_010,100.0,1
A=FERw=15000t=0000f=010r=168.wav,_010,100.0,1
A=FERw=15000t=0000f=010r=169.wav,_010,100.0,1
A=FERw=15000t=0000f=010r=17.wav,_010,99.98,1
A=FERw=15000t=0000f=010r=170.wav,_010,100.0,1
A=FERw=15000t=0000f=010r=171.wav,_010,100.0,1
A=FERw=15000t=0000f=010r=172.wav,_010,100.0,1
A=FERw=15000t=0000f=010r=173.wav,_010,100.0,1
A=FERw=15000t=0000f=010r=174.wav,_010,100.0,1
A=FERw=15000t=0000f=010r=175.wav,_010,100.0,1
A=FERw=15000t=0000f=010r=176.wav,_010,100.0,1
A=FERw=15000t=0000f=010r=177.wav,_010,100.0,1
A=FERw=15000t=0000f=010r=178.wav,_010,100.0,1
A=FERw=15000t=0000f=010r=179.wav,_010,100.0,1
A=FERw=15000t=0000f=010r=18.wav,_010,99.98,1
A=FERw=15000t=0000f=010r=180.wav,_010,100.0,1
A=FERw=15000t=0000f=010r=181.wav,_010,100.0,1
A=FERw=15000t=0000f=010r=182.wav,_010,100.0,1
A=FERw=15000t=0000f=010r=183.wav,_010,100.0,1
A=FERw=15000t=0000f=010r=184.wav,_010,100.0,1
A=FERw=15000t=0000f=010r=185.wav,_010,100.0,1
A=FERw=15000t=0000f=010r=186.wav,_010,100.0,1
A=FERw=15000t=0000f=010r=187.wav,_010,100.0,1
A=FERw=15000t=0000f=010r=188.wav,_010,100.0,1
A=FERw=15000t=0000f=010r=189.wav,_010,100.0,1
A=FERw=15000t=0000f=010r=19.wav,_010,98.96,1
A=FERw=15000t=0000f=010r=190.wav,_010,100.0,1
A=FERw=15000t=0000f=010r=191.wav,_010,100.0,1
A=FERw=15000t=0000f=010r=192.wav,_010,100.0,1
A=FERw=15000t=0000f=010r=193.wav,_010,100.0,1
A=FERw=15000t=0000f=010r=194.wav,_010,100.0,1
A=FERw=15000t=0000f=010r=195.wav,_010,100.0,1
A=FERw=15000t=0000f=010r=196.wav,_010,100.0,1
A=FERw=15000t=0000f=010r=197.wav,_010,100.0,1
A=FERw=15000t=0000f=010r=198.wav,_010,100.0,1
A=FERw=15000t=0000f=010r=199.wav,_010,100.0,1
A=FERw=15000t=0000f=010r=2.wav,_010,98.74,1
A=FERw=15000t=0000f=010r=20.wav,_010,99.94,1
A=FERw=15000t=0000f=010r=200.wav,_010,100.0,1
A=FERw=15000t=0000f=010r=201.wav,_010,100.0,1
A=FERw=15000t=0000f=010r=202.wav,_010,100.0,1
A=FERw=15000t=0000f=010r=203.wav,_010,100.0,1
A=FERw=15000t=0000f=010r=204.wav,_010,100.0,1
A=FERw=15000t=0000f=010r=205.wav,_010,100.0,1
A=FERw=15000t=0000f=010r=206.wav,_010,100.0,1
A=FERw=15000t=0000f=010r=207.wav,_010,100.0,1
A=FERw=15000t=0000f=010r=208.wav,_010,100.0,1
A=FERw=15000t=0000f=010r=209.wav,_010,100.0,1
A=FERw=15000t=0000f=010r=21.wav,_010,100.0,1
A=FERw=15000t=0000f=010r=210.wav,_010,100.0,1
A=FERw=15000t=0000f=010r=211.wav,_010,100.0,1
A=FERw=15000t=0000f=010r=212.wav,_010,100.0,1
A=FERw=15000t=0000f=010r=213.wav,_010,100.0,1
A=FERw=15000t=0000f=010r=214.wav,_010,100.0,1
A=FERw=15000t=0000f=010r=215.wav,_010,100.0,1
A=FERw=15000t=0000f=010r=216.wav,_010,100.0,1
A=FERw=15000t=0000f=010r=217.wav,_010,100.0,1
A=FERw=15000t=0000f=010r=218.wav,_010,100.0,1
A=FERw=15000t=0000f=010r=219.wav,_010,100.0,1
A=FERw=15000t=0000f=010r=22.wav,_010,99.38,1
A=FERw=15000t=0000f=010r=220.wav,_010,100.0,1
A=FERw=15000t=0000f=010r=221.wav,_010,100.0,1
A=FERw=15000t=0000f=010r=222.wav,_010,100.0,1
A=FERw=15000t=0000f=010r=223.wav,_010,100.0,1
A=FERw=15000t=0000f=010r=224.wav,_010,100.0,1
A=FERw=15000t=0000f=010r=225.wav,_010,100.0,1
A=FERw=15000t=0000f=010r=226.wav,_010,100.0,1
A=FERw=15000t=0000f=010r=227.wav,_010,100.0,1
A=FERw=15000t=0000f=010r=23.wav,_010,99.98,1
A=FERw=15000t=0000f=010r=24.wav,_010,99.98,1
A=FERw=15000t=0000f=010r=25.wav,_010,100.0,1
A=FERw=15000t=0000f=010r=26.wav,_010,99.86,1
A=FERw=15000t=0000f=010r=27.wav,_010,100.0,1
A=FERw=15000t=0000f=010r=270.wav,_010,58.88,1
A=FERw=15000t=0000f=010r=28.wav,_010,99.88,1
A=FERw=15000t=0000f=010r=284.wav,_010,81.52,1
A=FERw=15000t=0000f=010r=285.wav,_010,99.48,1
A=FERw=15000t=0000f=010r=286.wav,_010,99.8,1
A=FERw=15000t=0000f=010r=288.wav,_010,69.08,1
A=FERw=15000t=0000f=010r=289.wav,_010,90.4,1
A=FERw=15000t=0000f=010r=29.wav,_010,99.98,1
A=FERw=15000t=0000f=010r=290.wav,_010,92.46,1
A=FERw=15000t=0000f=010r=291.wav,_010,100.0,1
A=FERw=15000t=0000f=010r=3.wav,_010,99.66,1
A=FERw=15000t=0000f=010r=30.wav,_010,99.98,1
A=FERw=15000t=0000f=010r=303.wav,_010,17.9,1
A=FERw=15000t=0000f=010r=31.wav,_010,99.7,1
A=FERw=15000t=0000f=010r=32.wav,_010,99.98,1
A=FERw=15000t=0000f=010r=327.wav,_010,100.0,1
A=FERw=15000t=0000f=010r=328.wav,_010,99.84,1
A=FERw=15000t=0000f=010r=329.wav,_010,97.14,1
A=FERw=15000t=0000f=010r=33.wav,_010,100.0,1
A=FERw=15000t=0000f=010r=330.wav,_010,73.24,1
A=FERw=15000t=0000f=010r=331.wav,_010,98.64,1
A=FERw=15000t=0000f=010r=332.wav,_010,99.32,1
A=FERw=15000t=0000f=010r=333.wav,_010,98.5,1
A=FERw=15000t=0000f=010r=334.wav,_010,99.82,1
A=FERw=15000t=0000f=010r=336.wav,_010,96.04,1
A=FERw=15000t=0000f=010r=337.wav,_010,55.94,1
A=FERw=15000t=0000f=010r=338.wav,_010,95.9,1
A=FERw=15000t=0000f=010r=339.wav,_010,98.82,1
A=FERw=15000t=0000f=010r=340.wav,_010,96.42,1
A=FERw=15000t=0000f=010r=341.wav,_010,99.84,1
A=FERw=15000t=0000f=010r=342.wav,_010,99.66,1
A=FERw=15000t=0000f=010r=343.wav,_010,99.98,1
A=FERw=15000t=0000f=010r=344.wav,_010,99.98,1
A=FERw=15000t=0000f=010r=345.wav,_010,99.86,1
A=FERw=15000t=0000f=010r=348.wav,_010,96.96,1
A=FERw=15000t=0000f=010r=349.wav,_010,66.82,1
A=FERw=15000t=0000f=010r=35.wav,_010,100.0,1
A=FERw=15000t=0000f=010r=350.wav,_010,99.86,1
A=FERw=15000t=0000f=010r=351.wav,_010,100.0,1
A=FERw=15000t=0000f=010r=352.wav,_010,100.0,1
A=FERw=15000t=0000f=010r=354.wav,_010,39.5,1
A=FERw=15000t=0000f=010r=355.wav,_010,100.0,1
A=FERw=15000t=0000f=010r=356.wav,_010,99.7,1
A=FERw=15000t=0000f=010r=357.wav,_010,100.0,1
A=FERw=15000t=0000f=010r=358.wav,_010,100.0,1
A=FERw=15000t=0000f=010r=359.wav,_010,99.7,1
A=FERw=15000t=0000f=010r=36.wav,_010,97.3,1
A=FERw=15000t=0000f=010r=360.wav,_010,99.56,1
A=FERw=15000t=0000f=010r=361.wav,_010,100.0,1
A=FERw=15000t=0000f=010r=362.wav,_010,99.98,1
A=FERw=15000t=0000f=010r=363.wav,_010,100.0,1
A=FERw=15000t=0000f=010r=364.wav,_010,100.0,1
A=FERw=15000t=0000f=010r=365.wav,_010,97.96,1
A=FERw=15000t=0000f=010r=366.wav,_010,100.0,1
A=FERw=15000t=0000f=010r=368.wav,_010,31.82,1
A=FERw=15000t=0000f=010r=369.wav,_010,100.0,1
A=FERw=15000t=0000f=010r=37.wav,_010,97.54,1
A=FERw=15000t=0000f=010r=370.wav,_010,97.08,1
A=FERw=15000t=0000f=010r=371.wav,_010,97.94,1
A=FERw=15000t=0000f=010r=372.wav,_010,49.32,1
A=FERw=15000t=0000f=010r=373.wav,_010,99.36,1
A=FERw=15000t=0000f=010r=374.wav,_010,100.0,1
A=FERw=15000t=0000f=010r=375.wav,_010,75.26,1
A=FERw=15000t=0000f=010r=376.wav,_010,84.62,1
A=FERw=15000t=0000f=010r=377.wav,_010,95.74,1
A=FERw=15000t=0000f=010r=378.wav,_010,62.98,1
A=FERw=15000t=0000f=010r=379.wav,_010,55.14,1
A=FERw=15000t=0000f=010r=38.wav,_010,98.46,1
A=FERw=15000t=0000f=010r=380.wav,_010,75.48,1
A=FERw=15000t=0000f=010r=381.wav,_010,99.86,1
A=FERw=15000t=0000f=010r=382.wav,_010,97.26,1
A=FERw=15000t=0000f=010r=383.wav,_010,100.0,1
A=FERw=15000t=0000f=010r=386.wav,_010,99.94,1
A=FERw=15000t=0000f=010r=387.wav,_010,100.0,1
A=FERw=15000t=0000f=010r=388.wav,_010,100.0,1
A=FERw=15000t=0000f=010r=389.wav,_010,100.0,1
A=FERw=15000t=0000f=010r=39.wav,_010,98.12,1
A=FERw=15000t=0000f=010r=390.wav,_010,100.0,1
A=FERw=15000t=0000f=010r=391.wav,_010,96.6,1
A=FERw=15000t=0000f=010r=392.wav,_010,99.98,1
A=FERw=15000t=0000f=010r=393.wav,_010,100.0,1
A=FERw=15000t=0000f=010r=394.wav,_010,100.0,1
A=FERw=15000t=0000f=010r=395.wav,_010,99.98,1
A=FERw=15000t=0000f=010r=396.wav,_010,99.98,1
A=FERw=15000t=0000f=010r=397.wav,_010,99.94,1
A=FERw=15000t=0000f=010r=398.wav,_010,99.72,1
A=FERw=15000t=0000f=010r=399.wav,_010,100.0,1
A=FERw=15000t=0000f=010r=4.wav,_010,99.18,1
A=FERw=15000t=0000f=010r=40.wav,_010,65.0,1
A=FERw=15000t=0000f=010r=400.wav,_010,99.98,1
A=FERw=15000t=0000f=010r=401.wav,_010,99.9,1
A=FERw=15000t=0000f=010r=402.wav,_010,100.0,1
A=FERw=15000t=0000f=010r=403.wav,_010,99.98,1
A=FERw=15000t=0000f=010r=404.wav,_010,100.0,1
A=FERw=15000t=0000f=010r=405.wav,_010,99.84,1
A=FERw=15000t=0000f=010r=406.wav,_010,100.0,1
A=FERw=15000t=0000f=010r=407.wav,_010,67.0,1
A=FERw=15000t=0000f=010r=408.wav,_010,99.88,1
A=FERw=15000t=0000f=010r=409.wav,_010,99.98,1
A=FERw=15000t=0000f=010r=41.wav,_010,100.0,1
A=FERw=15000t=0000f=010r=410.wav,_010,92.8,1
A=FERw=15000t=0000f=010r=411.wav,_010,99.92,1
A=FERw=15000t=0000f=010r=413.wav,_010,75.48,1
A=FERw=15000t=0000f=010r=414.wav,_010,99.38,1
A=FERw=15000t=0000f=010r=415.wav,_010,57.94,1
A=FERw=15000t=0000f=010r=416.wav,_010,62.28,1
A=FERw=15000t=0000f=010r=418.wav,_010,99.82,1
A=FERw=15000t=0000f=010r=419.wav,_010,100.0,1
A=FERw=15000t=0000f=010r=42.wav,_010,76.7,1
A=FERw=15000t=0000f=010r=420.wav,_010,100.0,1
A=FERw=15000t=0000f=010r=421.wav,_010,99.5,1
A=FERw=15000t=0000f=010r=422.wav,_010,100.0,1
A=FERw=15000t=0000f=010r=423.wav,_010,100.0,1
A=FERw=15000t=0000f=010r=424.wav,_010,34.18,1
A=FERw=15000t=0000f=010r=425.wav,_010,99.98,1
A=FERw=15000t=0000f=010r=426.wav,_010,89.3,1
A=FERw=15000t=0000f=010r=427.wav,_010,36.22,1
A=FERw=15000t=0000f=010r=428.wav,_010,7.0,1
A=FERw=15000t=0000f=010r=429.wav,_010,50.48,1
A=FERw=15000t=0000f=010r=43.wav,_010,99.9,1
A=FERw=15000t=0000f=010r=430.wav,_010,99.32,1
A=FERw=15000t=0000f=010r=431.wav,_010,94.42,1
A=FERw=15000t=0000f=010r=432.wav,_010,86.16,1
A=FERw=15000t=0000f=010r=433.wav,_010,73.7,1
A=FERw=15000t=0000f=010r=434.wav,_010,62.64,1
A=FERw=15000t=0000f=010r=435.wav,_010,99.88,1
A=FERw=15000t=0000f=010r=437.wav,_010,100.0,1
A=FERw=15000t=0000f=010r=438.wav,_010,99.98,1
A=FERw=15000t=0000f=010r=44.wav,_010,100.0,1
A=FERw=15000t=0000f=010r=440.wav,_010,99.66,1
A=FERw=15000t=0000f=010r=442.wav,_010,47.6,1
A=FERw=15000t=0000f=010r=443.wav,_010,29.88,1
A=FERw=15000t=0000f=010r=445.wav,_010,99.98,1
A=FERw=15000t=0000f=010r=446.wav,_010,36.82,1
A=FERw=15000t=0000f=010r=448.wav,_010,96.24,1
A=FERw=15000t=0000f=010r=45.wav,_010,100.0,1
A=FERw=15000t=0000f=010r=454.wav,_010,87.82,1
A=FERw=15000t=0000f=010r=455.wav,_010,99.92,1
A=FERw=15000t=0000f=010r=456.wav,_010,99.32,1
A=FERw=15000t=0000f=010r=457.wav,_010,81.04,1
A=FERw=15000t=0000f=010r=46.wav,_010,100.0,1
A=FERw=15000t=0000f=010r=462.wav,_010,98.52,1
A=FERw=15000t=0000f=010r=47.wav,_010,99.88,1
A=FERw=15000t=0000f=010r=48.wav,_010,100.0,1
A=FERw=15000t=0000f=010r=482.wav,_010,99.58,1
A=FERw=15000t=0000f=010r=485.wav,_010,100.0,1
A=FERw=15000t=0000f=010r=486.wav,_010,92.5,1
A=FERw=15000t=0000f=010r=487.wav,_010,100.0,1
A=FERw=15000t=0000f=010r=488.wav,_010,100.0,1
A=FERw=15000t=0000f=010r=489.wav,_010,84.12,1
A=FERw=15000t=0000f=010r=49.wav,_010,99.6,1
A=FERw=15000t=0000f=010r=490.wav,_010,100.0,1
A=FERw=15000t=0000f=010r=491.wav,_010,100.0,1
A=FERw=15000t=0000f=010r=492.wav,_010,88.22,1
A=FERw=15000t=0000f=010r=493.wav,_010,99.54,1
A=FERw=15000t=0000f=010r=494.wav,_010,98.64,1
A=FERw=15000t=0000f=010r=495.wav,_010,84.4,1
A=FERw=15000t=0000f=010r=496.wav,_010,99.98,1
A=FERw=15000t=0000f=010r=497.wav,_010,100.0,1
A=FERw=15000t=0000f=010r=498.wav,_010,99.98,1
A=FERw=15000t=0000f=010r=499.wav,_010,99.54,1
A=FERw=15000t=0000f=010r=5.wav,_010,100.0,1
A=FERw=15000t=0000f=010r=50.wav,_010,97.46,1
A=FERw=15000t=0000f=010r=500.wav,_010,100.0,1
A=FERw=15000t=0000f=010r=501.wav,_010,99.92,1
A=FERw=15000t=0000f=010r=502.wav,_010,48.4,1
A=FERw=15000t=0000f=010r=503.wav,_010,99.52,1
A=FERw=15000t=0000f=010r=504.wav,_010,100.0,1
A=FERw=15000t=0000f=010r=505.wav,_010,55.78,1
A=FERw=15000t=0000f=010r=506.wav,_010,100.0,1
A=FERw=15000t=0000f=010r=508.wav,_010,99.3,1
A=FERw=15000t=0000f=010r=509.wav,_010,98.34,1
A=FERw=15000t=0000f=010r=51.wav,_010,100.0,1
A=FERw=15000t=0000f=010r=510.wav,_010,99.92,1
A=FERw=15000t=0000f=010r=511.wav,_010,96.96,1
A=FERw=15000t=0000f=010r=512.wav,_010,24.86,1
A=FERw=15000t=0000f=010r=513.wav,_010,67.3,1
A=FERw=15000t=0000f=010r=514.wav,_010,100.0,1
A=FERw=15000t=0000f=010r=515.wav,_010,100.0,1
A=FERw=15000t=0000f=010r=516.wav,_010,99.98,1
A=FERw=15000t=0000f=010r=517.wav,_010,100.0,1
A=FERw=15000t=0000f=010r=518.wav,_010,100.0,1
A=FERw=15000t=0000f=010r=519.wav,_010,100.0,1
A=FERw=15000t=0000f=010r=52.wav,_010,98.4,1
A=FERw=15000t=0000f=010r=520.wav,_010,100.0,1
A=FERw=15000t=0000f=010r=521.wav,_010,99.96,1
A=FERw=15000t=0000f=010r=523.wav,_010,99.54,1
A=FERw=15000t=0000f=010r=524.wav,_010,100.0,1
A=FERw=15000t=0000f=010r=525.wav,_010,100.0,1
A=FERw=15000t=0000f=010r=526.wav,_010,99.96,1
A=FERw=15000t=0000f=010r=53.wav,_010,99.92,1
A=FERw=15000t=0000f=010r=54.wav,_010,100.0,1
A=FERw=15000t=0000f=010r=55.wav,_010,100.0,1
A=FERw=15000t=0000f=010r=56.wav,_010,100.0,1
A=FERw=15000t=0000f=010r=57.wav,_010,100.0,1
A=FERw=15000t=0000f=010r=58.wav,_010,100.0,1
A=FERw=15000t=0000f=010r=59.wav,_010,99.98,1
A=FERw=15000t=0000f=010r=6.wav,_010,99.98,1
A=FERw=15000t=0000f=010r=60.wav,_010,100.0,1
A=FERw=15000t=0000f=010r=61.wav,_010,11.7,1
A=FERw=15000t=0000f=010r=62.wav,_010,100.0,1
A=FERw=15000t=0000f=010r=64.wav,_010,100.0,1
A=FERw=15000t=0000f=010r=65.wav,_010,100.0,1
A=FERw=15000t=0000f=010r=66.wav,_010,100.0,1
A=FERw=15000t=0000f=010r=67.wav,_010,80.16,1
A=FERw=15000t=0000f=010r=68.wav,_010,100.0,1
A=FERw=15000t=0000f=010r=69.wav,_010,99.64,1
A=FERw=15000t=0000f=010r=7.wav,_010,99.84,1
A=FERw=15000t=0000f=010r=70.wav,_010,100.0,1
A=FERw=15000t=0000f=010r=71.wav,_010,100.0,1
A=FERw=15000t=0000f=010r=72.wav,_010,99.98,1
A=FERw=15000t=0000f=010r=73.wav,_010,100.0,1
A=FERw=15000t=0000f=010r=76.wav,_010,100.0,1
A=FERw=15000t=0000f=010r=77.wav,_010,0.54,1
A=FERw=15000t=0000f=010r=78.wav,_010,71.5,1
A=FERw=15000t=0000f=010r=79.wav,_010,93.92,1
A=FERw=15000t=0000f=010r=8.wav,_010,100.0,1
A=FERw=15000t=0000f=010r=80.wav,_010,99.0,1
A=FERw=15000t=0000f=010r=81.wav,_010,100.0,1
A=FERw=15000t=0000f=010r=82.wav,_010,100.0,1
A=FERw=15000t=0000f=010r=83.wav,_010,99.98,1
A=FERw=15000t=0000f=010r=84.wav,_010,89.78,1
A=FERw=15000t=0000f=010r=85.wav,_010,99.86,1
A=FERw=15000t=0000f=010r=86.wav,_010,73.52,1
A=FERw=15000t=0000f=010r=87.wav,_010,100.0,1
A=FERw=15000t=0000f=010r=88.wav,_010,100.0,1
A=FERw=15000t=0000f=010r=89.wav,_010,100.0,1
A=FERw=15000t=0000f=010r=9.wav,_010,100.0,1
A=FERw=15000t=0000f=010r=90.wav,_010,100.0,1
A=FERw=15000t=0000f=010r=91.wav,_010,100.0,1
A=FERw=15000t=0000f=010r=92.wav,_010,100.0,1
A=FERw=15000t=0000f=010r=93.wav,_010,97.72,1
A=FERw=15000t=0000f=010r=94.wav,_010,100.0,1
A=FERw=15000t=0000f=010r=95.wav,_010,99.82,1
A=FERw=15000t=0000f=010r=96.wav,_010,100.0,1
A=FERw=15000t=0000f=010r=97.wav,_010,99.98,1
A=FERw=15000t=0000f=010r=98.wav,_010,100.0,1
A=FERw=15000t=0000f=010r=99.wav,_010,99.92,1
A=gr9w=15000t=0000f=010r=10.wav,_010,100.0,1
A=gr9w=15000t=0000f=010r=100.wav,_010,99.94,1
A=gr9w=15000t=0000f=010r=101.wav,_010,99.94,1
A=gr9w=15000t=0000f=010r=102.wav,_010,100.0,1
A=gr9w=15000t=0000f=010r=11.wav,_010,99.84,1
A=gr9w=15000t=0000f=010r=12.wav,_010,100.0,1
A=gr9w=15000t=0000f=010r=13.wav,_010,100.0,1
A=gr9w=15000t=0000f=010r=14.wav,_010,99.78,1
A=gr9w=15000t=0000f=010r=15.wav,_010,91.66,1
A=gr9w=15000t=0000f=010r=16.wav,_010,26.52,1
A=gr9w=15000t=0000f=010r=17.wav,_010,99.98,1
A=gr9w=15000t=0000f=010r=19.wav,_010,98.96,1
A=gr9w=15000t=0000f=010r=2.wav,_010,98.74,1
A=gr9w=15000t=0000f=010r=20.wav,_010,99.94,1
A=gr9w=15000t=0000f=010r=21.wav,_010,100.0,1
A=gr9w=15000t=0000f=010r=22.wav,_010,99.38,1
A=gr9w=15000t=0000f=010r=23.wav,_010,99.98,1
A=gr9w=15000t=0000f=010r=24.wav,_010,99.98,1
A=gr9w=15000t=0000f=010r=25.wav,_010,100.0,1
A=gr9w=15000t=0000f=010r=26.wav,_010,99.86,1
A=gr9w=15000t=0000f=010r=27.wav,_010,100.0,1
A=gr9w=15000t=0000f=010r=28.wav,_010,99.88,1
A=gr9w=15000t=0000f=010r=29.wav,_010,99.98,1
A=gr9w=15000t=0000f=010r=3.wav,_010,99.66,1
A=gr9w=15000t=0000f=010r=30.wav,_010,99.98,1
A=gr9w=15000t=0000f=010r=31.wav,_010,99.7,1
A=gr9w=15000t=0000f=010r=32.wav,_010,99.98,1
A=gr9w=15000t=0000f=010r=33.wav,_010,100.0,1
A=gr9w=15000t=0000f=010r=35.wav,_010,100.0,1
A=gr9w=15000t=0000f=010r=36.wav,_010,97.3,1
A=gr9w=15000t=0000f=010r=37.wav,_010,97.54,1
A=gr9w=15000t=0000f=010r=38.wav,_010,98.46,1
A=gr9w=15000t=0000f=010r=39.wav,_010,98.12,1
A=gr9w=15000t=0000f=010r=4.wav,_010,99.18,1
A=gr9w=15000t=0000f=010r=40.wav,_010,65.0,1
A=gr9w=15000t=0000f=010r=41.wav,_010,100.0,1
A=gr9w=15000t=0000f=010r=42.wav,_010,76.7,1
A=gr9w=15000t=0000f=010r=43.wav,_010,99.9,1
A=gr9w=15000t=0000f=010r=44.wav,_010,100.0,1
A=gr9w=15000t=0000f=010r=45.wav,_010,100.0,1
A=gr9w=15000t=0000f=010r=46.wav,_010,100.0,1
A=gr9w=15000t=0000f=010r=47.wav,_010,99.88,1
A=gr9w=15000t=0000f=010r=48.wav,_010,100.0,1
A=gr9w=15000t=0000f=010r=49.wav,_010,99.6,1
A=gr9w=15000t=0000f=010r=5.wav,_010,100.0,1
A=gr9w=15000t=0000f=010r=50.wav,_010,97.46,1
A=gr9w=15000t=0000f=010r=51.wav,_010,100.0,1
A=gr9w=15000t=0000f=010r=52.wav,_010,98.4,1
A=gr9w=15000t=0000f=010r=53.wav,_010,99.92,1
A=gr9w=15000t=0000f=010r=54.wav,_010,100.0,1
A=gr9w=15000t=0000f=010r=55.wav,_010,100.0,1
A=gr9w=15000t=0000f=010r=56.wav,_010,100.0,1
A=gr9w=15000t=0000f=010r=57.wav,_010,100.0,1
A=gr9w=15000t=0000f=010r=58.wav,_010,100.0,1
A=gr9w=15000t=0000f=010r=59.wav,_010,99.98,1
A=gr9w=15000t=0000f=010r=60.wav,_010,100.0,1
A=gr9w=15000t=0000f=010r=61.wav,_010,11.7,1
A=gr9w=15000t=0000f=010r=62.wav,_010,100.0,1
A=gr9w=15000t=0000f=010r=64.wav,_010,100.0,1
A=gr9w=15000t=0000f=010r=65.wav,_010,100.0,1
A=gr9w=15000t=0000f=010r=66.wav,_010,100.0,1
A=gr9w=15000t=0000f=010r=67.wav,_010,80.16,1
A=gr9w=15000t=0000f=010r=68.wav,_010,100.0,1
A=gr9w=15000t=0000f=010r=69.wav,_010,99.64,1
A=gr9w=15000t=0000f=010r=7.wav,_010,99.84,1
A=gr9w=15000t=0000f=010r=70.wav,_010,100.0,1
A=gr9w=15000t=0000f=010r=71.wav,_010,100.0,1
A=gr9w=15000t=0000f=010r=72.wav,_010,99.98,1
A=gr9w=15000t=0000f=010r=73.wav,_010,100.0,1
A=gr9w=15000t=0000f=010r=76.wav,_010,100.0,1
A=gr9w=15000t=0000f=010r=77.wav,_010,0.54,1
A=gr9w=15000t=0000f=010r=78.wav,_010,71.5,1
A=gr9w=15000t=0000f=010r=79.wav,_010,93.92,1
A=gr9w=15000t=0000f=010r=8.wav,_010,100.0,1
A=gr9w=15000t=0000f=010r=80.wav,_010,99.0,1
A=gr9w=15000t=0000f=010r=81.wav,_010,100.0,1
A=gr9w=15000t=0000f=010r=82.wav,_010,100.0,1
A=gr9w=15000t=0000f=010r=83.wav,_010,99.98,1
A=gr9w=15000t=0000f=010r=84.wav,_010,89.78,1
A=gr9w=15000t=0000f=010r=85.wav,_010,99.86,1
A=gr9w=15000t=0000f=010r=86.wav,_010,73.52,1
A=gr9w=15000t=0000f=010r=87.wav,_010,100.0,1
A=gr9w=15000t=0000f=010r=88.wav,_010,100.0,1
A=gr9w=15000t=0000f=010r=89.wav,_010,100.0,1
A=gr9w=15000t=0000f=010r=9.wav,_010,100.0,1
A=gr9w=15000t=0000f=010r=90.wav,_010,100.0,1
A=gr9w=15000t=0000f=010r=91.wav,_010,100.0,1
A=gr9w=15000t=0000f=010r=92.wav,_010,100.0,1
A=gr9w=15000t=0000f=010r=93.wav,_010,97.72,1
A=gr9w=15000t=0000f=010r=94.wav,_010,100.0,1
A=gr9w=15000t=0000f=010r=95.wav,_010,99.82,1
A=gr9w=15000t=0000f=010r=96.wav,_010,100.0,1
A=gr9w=15000t=0000f=010r=97.wav,_010,99.98,1
A=gr9w=15000t=0000f=010r=99.wav,_010,99.92,1
A=FERw=15000t=0000f=020r=370.wav,_020,100.0,1
A=FERw=15000t=0000f=020r=372.wav,_020,46.26,1
A=FERw=15000t=0000f=020r=88.wav,_020,27.72,1
A=FERw=15000t=0000f=020r=91.wav,_020,75.12,1
A=FERw=15000t=0000f=20*r=10.wav,_020,100.0,1
A=FERw=15000t=0000f=20*r=101.wav,_020,84.86,1
A=FERw=15000t=0000f=20*r=102.wav,_020,22.94,1
A=FERw=15000t=0000f=20*r=104.wav,_020,99.3,1
A=FERw=15000t=0000f=20*r=106.wav,_020,99.74,1
A=FERw=15000t=0000f=20*r=109.wav,_020,99.6,1
A=FERw=15000t=0000f=20*r=11.wav,_020,100.0,1
A=FERw=15000t=0000f=20*r=110.wav,_020,99.6,1
A=FERw=15000t=0000f=20*r=111.wav,_020,26.66,1
A=FERw=15000t=0000f=20*r=112.wav,_020,99.16,1
A=FERw=15000t=0000f=20*r=113.wav,_020,99.9,1
A=FERw=15000t=0000f=20*r=115.wav,_020,100.0,1
A=FERw=15000t=0000f=20*r=116.wav,_020,100.0,1
A=FERw=15000t=0000f=20*r=117.wav,_020,100.0,1
A=FERw=15000t=0000f=20*r=118.wav,_020,100.0,1
A=FERw=15000t=0000f=20*r=119.wav,_020,100.0,1
A=FERw=15000t=0000f=20*r=12.wav,_020,100.0,1
A=FERw=15000t=0000f=20*r=120.wav,_020,100.0,1
A=FERw=15000t=0000f=20*r=121.wav,_020,100.0,1
A=FERw=15000t=0000f=20*r=122.wav,_020,100.0,1
A=FERw=15000t=0000f=20*r=123.wav,_020,99.98,1
A=FERw=15000t=0000f=20*r=124.wav,_020,99.9,1
A=FERw=15000t=0000f=20*r=125.wav,_020,100.0,1
A=FERw=15000t=0000f=20*r=126.wav,_020,100.0,1
A=FERw=15000t=0000f=20*r=127.wav,_020,33.4,1
A=FERw=15000t=0000f=20*r=129.wav,_020,99.96,1
A=FERw=15000t=0000f=20*r=13.wav,_020,100.0,1
A=FERw=15000t=0000f=20*r=130.wav,_020,100.0,1
A=FERw=15000t=0000f=20*r=131.wav,_020,100.0,1
A=FERw=15000t=0000f=20*r=132.wav,_020,100.0,1
A=FERw=15000t=0000f=20*r=133.wav,_020,100.0,1
A=FERw=15000t=0000f=20*r=134.wav,_020,100.0,1
A=FERw=15000t=0000f=20*r=135.wav,_020,38.56,1
A=FERw=15000t=0000f=20*r=136.wav,_020,100.0,1
A=FERw=15000t=0000f=20*r=137.wav,_020,99.5,1
A=FERw=15000t=0000f=20*r=138.wav,_020,100.0,1
A=FERw=15000t=0000f=20*r=14.wav,_020,100.0,1
A=FERw=15000t=0000f=20*r=143.wav,_020,100.0,1
A=FERw=15000t=0000f=20*r=15.wav,_020,100.0,1
A=FERw=15000t=0000f=20*r=16.wav,_020,99.98,1
A=FERw=15000t=0000f=20*r=17.wav,_020,100.0,1
A=FERw=15000t=0000f=20*r=18.wav,_020,100.0,1
A=FERw=15000t=0000f=20*r=19.wav,_020,100.0,1
A=FERw=15000t=0000f=20*r=20.wav,_020,99.92,1
A=FERw=15000t=0000f=20*r=21.wav,_020,99.26,1
A=FERw=15000t=0000f=20*r=22.wav,_020,100.0,1
A=FERw=15000t=0000f=20*r=23.wav,_020,99.24,1
A=FERw=15000t=0000f=20*r=24.wav,_020,99.98,1
A=FERw=15000t=0000f=20*r=25.wav,_020,99.54,1
A=FERw=15000t=0000f=20*r=26.wav,_020,99.88,1
A=FERw=15000t=0000f=20*r=27.wav,_020,99.5,1
A=FERw=15000t=0000f=20*r=29.wav,_020,99.86,1
A=FERw=15000t=0000f=20*r=3.wav,_020,99.74,1
A=FERw=15000t=0000f=20*r=30.wav,_020,99.96,1
A=FERw=15000t=0000f=20*r=32.wav,_020,100.0,1
A=FERw=15000t=0000f=20*r=33.wav,_020,100.0,1
A=FERw=15000t=0000f=20*r=34.wav,_020,100.0,1
A=FERw=15000t=0000f=20*r=35.wav,_020,99.92,1
A=FERw=15000t=0000f=20*r=36.wav,_020,97.74,1
A=FERw=15000t=0000f=20*r=38.wav,_020,99.9,1
A=FERw=15000t=0000f=20*r=39.wav,_020,97.64,1
A=FERw=15000t=0000f=20*r=4.wav,_020,79.36,1
A=FERw=15000t=0000f=20*r=41.wav,_020,30.32,1
A=FERw=15000t=0000f=20*r=42.wav,_020,73.42,1
A=FERw=15000t=0000f=20*r=43.wav,_020,62.34,1
A=FERw=15000t=0000f=20*r=46.wav,_020,99.5,1
A=FERw=15000t=0000f=20*r=49.wav,_020,99.86,1
A=FERw=15000t=0000f=20*r=5.wav,_020,68.26,1
A=FERw=15000t=0000f=20*r=50.wav,_020,100.0,1
A=FERw=15000t=0000f=20*r=51.wav,_020,85.2,1
A=FERw=15000t=0000f=20*r=52.wav,_020,99.98,1
A=FERw=15000t=0000f=20*r=53.wav,_020,99.1,1
A=FERw=15000t=0000f=20*r=54.wav,_020,99.5,1
A=FERw=15000t=0000f=20*r=55.wav,_020,87.58,1
A=FERw=15000t=0000f=20*r=56.wav,_020,95.36,1
A=FERw=15000t=0000f=20*r=58.wav,_020,99.94,1
A=FERw=15000t=0000f=20*r=59.wav,_020,48.18,1
A=FERw=15000t=0000f=20*r=60.wav,_020,13.72,1
A=FERw=15000t=0000f=20*r=62.wav,_020,97.38,1
A=FERw=15000t=0000f=20*r=65.wav,_020,99.78,1
A=FERw=15000t=0000f=20*r=66.wav,_020,99.98,1
A=FERw=15000t=0000f=20*r=67.wav,_020,100.0,1
A=FERw=15000t=0000f=20*r=68.wav,_020,100.0,1
A=FERw=15000t=0000f=20*r=69.wav,_020,100.0,1
A=FERw=15000t=0000f=20*r=7.wav,_020,100.0,1
A=FERw=15000t=0000f=20*r=70.wav,_020,100.0,1
A=FERw=15000t=0000f=20*r=71.wav,_020,94.1,1
A=FERw=15000t=0000f=20*r=73.wav,_020,99.86,1
A=FERw=15000t=0000f=20*r=74.wav,_020,99.98,1
A=FERw=15000t=0000f=20*r=75.wav,_020,93.2,1
A=FERw=15000t=0000f=20*r=76.wav,_020,86.06,1
A=FERw=15000t=0000f=20*r=78.wav,_020,99.02,1
A=FERw=15000t=0000f=20*r=79.wav,_020,61.4,1
A=FERw=15000t=0000f=20*r=8.wav,_020,100.0,1
A=FERw=15000t=0000f=20*r=80.wav,_020,80.46,1
A=FERw=15000t=0000f=20*r=81.wav,_020,100.0,1
A=FERw=15000t=0000f=20*r=82.wav,_020,61.18,1
A=FERw=15000t=0000f=20*r=83.wav,_020,96.86,1
A=FERw=15000t=0000f=20*r=84.wav,_020,100.0,1
A=FERw=15000t=0000f=20*r=85.wav,_020,99.9,1
A=FERw=15000t=0000f=20*r=86.wav,_020,100.0,1
A=FERw=15000t=0000f=20*r=88.wav,_020,74.3,1
A=FERw=15000t=0000f=20*r=9.wav,_020,100.0,1
A=FERw=15000t=0000f=20*r=90.wav,_020,100.0,1
A=FERw=15000t=0000f=20*r=91.wav,_020,100.0,1
A=FERw=15000t=0000f=20*r=93.wav,_020,100.0,1
A=FERw=15000t=0000f=20*r=94.wav,_020,100.0,1
A=FERw=15000t=0000f=20*r=95.wav,_020,100.0,1
A=FERw=15000t=0000f=20*r=96.wav,_020,98.58,1
A=ge1w=15000t=14600f=020r=102.wav,_020,100.0,1
A=ge1w=15000t=14600f=020r=123.wav,_020,100.0,1
A=ge1w=15000t=14600f=020r=145.wav,_020,99.9,1
A=ge1w=15000t=14600f=020r=200.wav,_020,43.72,1
A=ge1w=15000t=14600f=020r=222.wav,_020,100.0,1
A=ge1w=15000t=14600f=020r=245.wav,_020,100.0,1
A=ge1w=15000t=14600f=020r=273.wav,_020,100.0,1
A=ge1w=15000t=14600f=020r=274.wav,_020,95.1,1
A=ge1w=15000t=14600f=020r=275.wav,_020,99.9,1
A=ge1w=15000t=14600f=020r=276.wav,_020,89.24,1
A=ge1w=15000t=14600f=020r=36.wav,_020,100.0,1
A=ge1w=15000t=14600f=020r=81.wav,_020,99.74,1
A=ge1w=15000t=15000f=020r=140.wav,_020,58.72,1
A=ge1w=15000t=15000f=020r=162.wav,_020,99.92,1
A=ge1w=15000t=15000f=020r=341.wav,_020,99.46,1
A=ge1w=15000t=15000f=020r=342.wav,_020,81.94,1
A=ge1w=15000t=15000f=020r=344.wav,_020,94.92,1
A=ge1w=15000t=15000f=020r=543.wav,_020,97.72,1
A=ge1w=15000t=15000f=020r=546.wav,_020,98.02,1
A=ge1w=15000t=15000f=020r=549.wav,_020,99.96,1
A=ge1w=15000t=15000f=020r=552.wav,_020,99.78,1
A=ge1w=15000t=15000f=020r=97.wav,_020,99.7,1
A=ge1w=15000t=15600f=020r=363.wav,_020,99.98,1
A=ge1w=15000t=15900f=020r=374.wav,_020,99.82,1
A=ge1w=15000t=15900f=020r=375.wav,_020,99.68,1
A=ge1w=15000t=15900f=020r=376.wav,_020,99.82,1
A=ge1w=15000t=15900f=020r=377.wav,_020,83.66,1
A=ge1w=15000t=15900f=020r=378.wav,_020,99.96,1
A=ge1w=15000t=15900f=020r=379.wav,_020,98.7,1
A=ge1w=15000t=15900f=020r=380.wav,_020,99.72,1
A=ge1w=15000t=15900f=020r=381.wav,_020,99.98,1
A=ge1w=15000t=15900f=020r=382.wav,_020,100.0,1
A=gr5w=15000t=14600f=020r=1.wav,_020,15.98,1
A=gr5w=15000t=14600f=020r=10.wav,_020,99.9,1
A=gr5w=15000t=14600f=020r=11.wav,_020,93.5,1
A=gr5w=15000t=14600f=020r=12.wav,_020,100.0,1
A=gr5w=15000t=14600f=020r=13.wav,_020,100.0,1
A=gr5w=15000t=14600f=020r=14.wav,_020,95.82,1
A=gr5w=15000t=14600f=020r=15.wav,_020,99.98,1
A=gr5w=15000t=14600f=020r=16.wav,_020,98.72,1
A=gr5w=15000t=14600f=020r=17.wav,_020,99.94,1
A=gr5w=15000t=14600f=020r=18.wav,_020,100.0,1
A=gr5w=15000t=14600f=020r=19.wav,_020,98.8,1
A=gr5w=15000t=14600f=020r=23.wav,_020,47.62,1
A=gr5w=15000t=14600f=020r=24.wav,_020,99.1,1
A=gr5w=15000t=14600f=020r=25.wav,_020,99.58,1
A=gr5w=15000t=14600f=020r=27.wav,_020,69.7,1
A=gr5w=15000t=14600f=020r=28.wav,_020,99.58,1
A=gr5w=15000t=14600f=020r=29.wav,_020,99.74,1
A=gr5w=15000t=14600f=020r=3.wav,_020,99.8,1
A=gr5w=15000t=14600f=020r=30.wav,_020,73.64,1
A=gr5w=15000t=14600f=020r=31.wav,_020,64.88,1
A=gr5w=15000t=14600f=020r=32.wav,_020,87.66,1
A=gr5w=15000t=14600f=020r=33.wav,_020,99.92,1
A=gr5w=15000t=14600f=020r=34.wav,_020,93.88,1
A=gr5w=15000t=14600f=020r=35.wav,_020,99.98,1
A=gr5w=15000t=14600f=020r=36.wav,_020,99.84,1
A=gr5w=15000t=14600f=020r=37.wav,_020,99.84,1
A=gr5w=15000t=14600f=020r=38.wav,_020,99.9,1
A=gr5w=15000t=14600f=020r=39.wav,_020,99.02,1
A=gr5w=15000t=14600f=020r=4.wav,_020,99.94,1
A=gr5w=15000t=14600f=020r=40.wav,_020,72.58,1
A=gr5w=15000t=14600f=020r=41.wav,_020,99.82,1
A=gr5w=15000t=14600f=020r=42.wav,_020,91.34,1
A=gr5w=15000t=14600f=020r=45.wav,_020,84.78,1
A=gr5w=15000t=14600f=020r=5.wav,_020,99.6,1
A=gr5w=15000t=14600f=020r=6.wav,_020,27.12,1
A=gr5w=15000t=14600f=020r=7.wav,_020,99.42,1
A=gr5w=15000t=14600f=020r=8.wav,_020,95.26,1
A=gr5w=15000t=14600f=020r=9.wav,_020,99.08,1
A=gr5w=15000t=15000f=020r=14.wav,_020,96.2,1
A=gr5w=15000t=15000f=020r=23.wav,_020,94.72,1
A=gr5w=15000t=15000f=020r=24.wav,_020,99.96,1
A=gr5w=15000t=15000f=020r=28.wav,_020,91.92,1
A=gr5w=15000t=15000f=020r=29.wav,_020,98.84,1
A=gr5w=15000t=15000f=020r=30.wav,_020,99.0,1
A=gr5w=15000t=15000f=020r=31.wav,_020,99.68,1
A=gr5w=15000t=15000f=020r=32.wav,_020,71.32,1
A=gr5w=15000t=15000f=020r=36.wav,_020,54.44,1
A=gr5w=15000t=15000f=020r=37.wav,_020,97.08,1
A=gr5w=15000t=15000f=020r=40.wav,_020,6.58,1
A=tm2w=15000t=14600f=020r=02.wav,_020,100.0,1
A=tm2w=15000t=15000f=020r=03.wav,_020,69.86,1
A=FERw=15000t=0000f=030r=10.wav,_030,100.0,0
A=FERw=15000t=0000f=030r=106.wav,_030,92.7,0
A=FERw=15000t=0000f=030r=11.wav,_030,100.0,0
A=FERw=15000t=0000f=030r=12.wav,_030,100.0,0
A=FERw=15000t=0000f=030r=122.wav,_030,100.0,0
A=FERw=15000t=0000f=030r=123.wav,_030,91.02,0
A=FERw=15000t=0000f=030r=124.wav,_030,97.78,0
A=FERw=15000t=0000f=030r=125.wav,_030,99.2,0
A=FERw=15000t=0000f=030r=126.wav,_030,89.04,0
A=FERw=15000t=0000f=030r=129.wav,_030,95.5,0
A=FERw=15000t=0000f=030r=13.wav,_030,100.0,0
A=FERw=15000t=0000f=030r=130.wav,_030,98.46,0
A=FERw=15000t=0000f=030r=131.wav,_030,72.48,0
A=FERw=15000t=0000f=030r=132.wav,_030,80.28,0
A=FERw=15000t=0000f=030r=135.wav,_030,84.48,0
A=FERw=15000t=0000f=030r=136.wav,_030,5.36,0
A=FERw=15000t=0000f=030r=138.wav,_030,99.84,0
A=FERw=15000t=0000f=030r=139.wav,_030,100.0,0
A=FERw=15000t=0000f=030r=14.wav,_030,100.0,0
A=FERw=15000t=0000f=030r=140.wav,_030,12.78,0
A=FERw=15000t=0000f=030r=141.wav,_030,100.0,0
A=FERw=15000t=0000f=030r=142.wav,_030,99.94,0
A=FERw=15000t=0000f=030r=143.wav,_030,2.16,0
A=FERw=15000t=0000f=030r=145.wav,_030,100.0,0
A=FERw=15000t=0000f=030r=146.wav,_030,99.96,0
A=FERw=15000t=0000f=030r=147.wav,_030,100.0,0
A=FERw=15000t=0000f=030r=148.wav,_030,100.0,0
A=FERw=15000t=0000f=030r=149.wav,_030,76.38,0
A=FERw=15000t=0000f=030r=15.wav,_030,100.0,0
A=FERw=15000t=0000f=030r=150.wav,_030,95.4,0
A=FERw=15000t=0000f=030r=151.wav,_030,67.84,0
A=FERw=15000t=0000f=030r=154.wav,_030,37.48,0
A=FERw=15000t=0000f=030r=155.wav,_030,100.0,0
A=FERw=15000t=0000f=030r=156.wav,_030,57.42,0
A=FERw=15000t=0000f=030r=157.wav,_030,99.92,0
A=FERw=15000t=0000f=030r=158.wav,_030,7.24,0
A=FERw=15000t=0000f=030r=16.wav,_030,100.0,0
A=FERw=15000t=0000f=030r=161.wav,_030,99.12,0
A=FERw=15000t=0000f=030r=163.wav,_030,98.22,0
A=FERw=15000t=0000f=030r=164.wav,_030,99.92,0
A=FERw=15000t=0000f=030r=165.wav,_030,52.1,0
A=FERw=15000t=0000f=030r=166.wav,_030,94.76,0
A=FERw=15000t=0000f=030r=17.wav,_030,98.18,0
A=FERw=15000t=0000f=030r=173.wav,_030,100.0,0
A=FERw=15000t=0000f=030r=174.wav,_030,91.72,0
A=FERw=15000t=0000f=030r=175.wav,_030,65.86,0
A=FERw=15000t=0000f=030r=178.wav,_030,53.26,0
A=FERw=15000t=0000f=030r=179.wav,_030,95.46,0
A=FERw=15000t=0000f=030r=18.wav,_030,100.0,0
A=FERw=15000t=0000f=030r=180.wav,_030,66.84,0
A=FERw=15000t=0000f=030r=19.wav,_030,100.0,0
A=FERw=15000t=0000f=030r=2.wav,_030,100.0,0
A=FERw=15000t=0000f=030r=20.wav,_030,100.0,0
A=FERw=15000t=0000f=030r=21.wav,_030,100.0,0
A=FERw=15000t=0000f=030r=22.wav,_030,100.0,0
A=FERw=15000t=0000f=030r=23.wav,_030,100.0,0
A=FERw=15000t=0000f=030r=24.wav,_030,100.0,0
A=FERw=15000t=0000f=030r=25.wav,_030,100.0,0
A=FERw=15000t=0000f=030r=26.wav,_030,100.0,0
A=FERw=15000t=0000f=030r=27.wav,_030,100.0,0
A=FERw=15000t=0000f=030r=28.wav,_030,100.0,0
A=FERw=15000t=0000f=030r=29.wav,_030,100.0,0
A=FERw=15000t=0000f=030r=3.wav,_030,100.0,0
A=FERw=15000t=0000f=030r=30.wav,_030,100.0,0
A=FERw=15000t=0000f=030r=31.wav,_030,100.0,0
A=FERw=15000t=0000f=030r=32.wav,_030,100.0,0
A=FERw=15000t=0000f=030r=33.wav,_030,100.0,0
A=FERw=15000t=0000f=030r=34.wav,_030,100.0,0
A=FERw=15000t=0000f=030r=35.wav,_030,100.0,0
A=FERw=15000t=0000f=030r=36.wav,_030,100.0,0
A=FERw=15000t=0000f=030r=37.wav,_030,100.0,0
A=FERw=15000t=0000f=030r=38.wav,_030,99.96,0
A=FERw=15000t=0000f=030r=4.wav,_030,100.0,0
A=FERw=15000t=0000f=030r=42.wav,_030,100.0,0
A=FERw=15000t=0000f=030r=43.wav,_030,100.0,0
A=FERw=15000t=0000f=030r=44.wav,_030,100.0,0
A=FERw=15000t=0000f=030r=45.wav,_030,100.0,0
A=FERw=15000t=0000f=030r=46.wav,_030,100.0,0
A=FERw=15000t=0000f=030r=47.wav,_030,100.0,0
A=FERw=15000t=0000f=030r=48.wav,_030,100.0,0
A=FERw=15000t=0000f=030r=49.wav,_030,100.0,0
A=FERw=15000t=0000f=030r=5.wav,_030,100.0,0
A=FERw=15000t=0000f=030r=50.wav,_030,97.48,0
A=FERw=15000t=0000f=030r=51.wav,_030,100.0,0
A=FERw=15000t=0000f=030r=52.wav,_030,97.68,0
A=FERw=15000t=0000f=030r=53.wav,_030,100.0,0
A=FERw=15000t=0000f=030r=54.wav,_030,100.0,0
A=FERw=15000t=0000f=030r=55.wav,_030,100.0,0
A=FERw=15000t=0000f=030r=56.wav,_030,100.0,0
A=FERw=15000t=0000f=030r=57.wav,_030,99.92,0
A=FERw=15000t=0000f=030r=58.wav,_030,100.0,0
A=FERw=15000t=0000f=030r=59.wav,_030,9.16,0
A=FERw=15000t=0000f=030r=6.wav,_030,100.0,0
A=FERw=15000t=0000f=030r=7.wav,_030,99.82,0
A=FERw=15000t=0000f=030r=74.wav,_030,50.48,0
A=FERw=15000t=0000f=030r=8.wav,_030,100.0,0
A=FERw=15000t=0000f=030r=9.wav,_030,100.0,0
A=FERw=15000t=0000f=030r=98.wav,_030,99.82,0
A=FERw=15000t=0000f=030r=99.wav,_030,47.78,0
A=ge1w=15000t=15000f=030r=117.wav,_030,67.16,0
A=ge1w=15000t=15000f=030r=139.wav,_030,100.0,0
A=ge1w=15000t=15000f=030r=194.wav,_030,100.0,0
A=ge1w=15000t=15000f=030r=216.wav,_030,100.0,0
A=ge1w=15000t=15000f=030r=261.wav,_030,100.0,0
A=ge1w=15000t=15000f=030r=30.wav,_030,100.0,0
A=ge1w=15000t=15000f=030r=337.wav,_030,1.74,0
A=ge1w=15000t=15000f=030r=533.wav,_030,30.04,0
A=ge1w=15000t=15000f=030r=534.wav,_030,69.24,0
A=ge1w=15000t=15000f=030r=535.wav,_030,89.56,0
A=ge1w=15000t=15000f=030r=536.wav,_030,62.18,0
A=ge1w=15000t=15000f=030r=537.wav,_030,67.14,0
A=ge1w=15000t=15000f=030r=538.wav,_030,98.44,0
A=ge1w=15000t=15000f=030r=540.wav,_030,90.18,0
A=ge1w=15000t=15000f=030r=541.wav,_030,76.36,0
A=ge1w=15000t=15000f=030r=542.wav,_030,71.46,0
A=ge1w=15000t=15000f=030r=8.wav,_030,100.0,0
A=ge1w=15000t=15000f=030r=96.wav,_030,16.96,0
A=gr5w=15000t=16100f=030r=13.wav,_030,35.98,0
A=tm2w=15000t=15000f=030r=02.wav,_030,75.34,0
A=tm2w=15000t=15000f=030r=03.wav,_030,99.7,0
A=tm2w=15000t=15000f=030r=06.wav,_030,100.0,0
A=tm2w=15000t=15000f=030r=08.wav,_030,100.0,0
A=tm2w=15000t=16100f=030r=01.wav,_030,100.0,0
A=tm2w=15000t=16100f=030r=09.wav,_030,99.94,0
A=tm3w=15000t=15000f=030r=02.wav,_030,100.0,0
A=tm3w=15000t=15000f=030r=04.wav,_030,100.0,0
A=tm3w=15000t=15000f=030r=06.wav,_030,100.0,0
A=tm3w=15000t=15000f=030r=08.wav,_030,100.0,0
A=tm3w=15000t=16100f=030r=03.wav,_030,90.88,0
A=tm8w=15000t=15000f=030r=06.wav,_030,100.0,0
A=FERw=15000t=0000f=040*r=100.wav,_040,100.0,0
A=FERw=15000t=0000f=040*r=101.wav,_040,100.0,0
A=FERw=15000t=0000f=040*r=102.wav,_040,100.0,0
A=FERw=15000t=0000f=040*r=103.wav,_040,100.0,0
A=FERw=15000t=0000f=040*r=104.wav,_040,100.0,0
A=FERw=15000t=0000f=040*r=105.wav,_040,100.0,0
A=FERw=15000t=0000f=040*r=106.wav,_040,100.0,0
A=FERw=15000t=0000f=040*r=107.wav,_040,100.0,0
A=FERw=15000t=0000f=040*r=108.wav,_040,100.0,0
A=FERw=15000t=0000f=040*r=109.wav,_040,100.0,0
A=FERw=15000t=0000f=040*r=110.wav,_040,100.0,0
A=FERw=15000t=0000f=040*r=111.wav,_040,100.0,0
A=FERw=15000t=0000f=040*r=112.wav,_040,100.0,0
A=FERw=15000t=0000f=040*r=113.wav,_040,100.0,0
A=FERw=15000t=0000f=040*r=114.wav,_040,100.0,0
A=FERw=15000t=0000f=040*r=115.wav,_040,100.0,0
A=FERw=15000t=0000f=040*r=116.wav,_040,100.0,0
A=FERw=15000t=0000f=040*r=117.wav,_040,100.0,0
A=FERw=15000t=0000f=040*r=118.wav,_040,100.0,0
A=FERw=15000t=0000f=040*r=119.wav,_040,100.0,0
A=FERw=15000t=0000f=040*r=120.wav,_040,100.0,0
A=FERw=15000t=0000f=040*r=121.wav,_040,100.0,0
A=FERw=15000t=0000f=040*r=127.wav,_040,85.28,0
A=FERw=15000t=0000f=040*r=128.wav,_040,99.84,0
A=FERw=15000t=0000f=040*r=129.wav,_040,18.46,0
A=FERw=15000t=0000f=040*r=130.wav,_040,96.5,0
A=FERw=15000t=0000f=040*r=131.wav,_040,97.72,0
A=FERw=15000t=0000f=040*r=136.wav,_040,92.38,0
A=FERw=15000t=0000f=040*r=138.wav,_040,96.28,0
A=FERw=15000t=0000f=040*r=139.wav,_040,99.4,0
A=FERw=15000t=0000f=040*r=141.wav,_040,99.16,0
A=FERw=15000t=0000f=040*r=143.wav,_040,83.26,0
A=FERw=15000t=0000f=040*r=149.wav,_040,100.0,0
A=FERw=15000t=0000f=040*r=151.wav,_040,100.0,0
A=FERw=15000t=0000f=040*r=154.wav,_040,10.04,0
A=FERw=15000t=0000f=040*r=159.wav,_040,47.82,0
A=FERw=15000t=0000f=040*r=160.wav,_040,99.84,0
A=FERw=15000t=0000f=040*r=161.wav,_040,99.86,0
A=FERw=15000t=0000f=040*r=170.wav,_040,98.2,0
A=FERw=15000t=0000f=040*r=178.wav,_040,91.04,0
A=FERw=15000t=0000f=040*r=181.wav,_040,46.78,0
A=FERw=15000t=0000f=040*r=182.wav,_040,97.78,0
A=FERw=15000t=0000f=040*r=186.wav,_040,40.94,0
A=FERw=15000t=0000f=040*r=187.wav,_040,76.34,0
A=FERw=15000t=0000f=040*r=188.wav,_040,99.72,0
A=FERw=15000t=0000f=040*r=189.wav,_040,100.0,0
A=FERw=15000t=0000f=040*r=190.wav,_040,90.82,0
A=FERw=15000t=0000f=040*r=192.wav,_040,100.0,0
A=FERw=15000t=0000f=040*r=193.wav,_040,75.94,0
A=FERw=15000t=0000f=040*r=195.wav,_040,37.38,0
A=FERw=15000t=0000f=040*r=196.wav,_040,91.74,0
A=FERw=15000t=0000f=040*r=197.wav,_040,39.84,0
A=FERw=15000t=0000f=040*r=198.wav,_040,99.98,0
A=FERw=15000t=0000f=040*r=199.wav,_040,100.0,0
A=FERw=15000t=0000f=040*r=202.wav,_040,97.06,0
A=FERw=15000t=0000f=040*r=205.wav,_040,99.9,0
A=FERw=15000t=0000f=040*r=206.wav,_040,99.9,0
A=FERw=15000t=0000f=040*r=207.wav,_040,99.96,0
A=FERw=15000t=0000f=040*r=208.wav,_040,81.2,0
A=FERw=15000t=0000f=040*r=209.wav,_040,99.98,0
A=FERw=15000t=0000f=040*r=210.wav,_040,99.74,0
A=FERw=15000t=0000f=040*r=211.wav,_040,100.0,0
A=FERw=15000t=0000f=040*r=212.wav,_040,99.84,0
A=FERw=15000t=0000f=040*r=213.wav,_040,100.0,0
A=FERw=15000t=0000f=040*r=214.wav,_040,94.1,0
A=FERw=15000t=0000f=040*r=215.wav,_040,93.9,0
A=FERw=15000t=0000f=040*r=216.wav,_040,97.52,0
A=FERw=15000t=0000f=040*r=217.wav,_040,80.5,0
A=FERw=15000t=0000f=040*r=220.wav,_040,98.02,0
A=FERw=15000t=0000f=040*r=222.wav,_040,18.0,0
A=FERw=15000t=0000f=040*r=223.wav,_040,100.0,0
A=FERw=15000t=0000f=040*r=224.wav,_040,94.02,0
A=FERw=15000t=0000f=040*r=225.wav,_040,100.0,0
A=FERw=15000t=0000f=040*r=226.wav,_040,67.32,0
A=FERw=15000t=0000f=040*r=228.wav,_040,100.0,0
A=FERw=15000t=0000f=040*r=229.wav,_040,99.7,0
A=FERw=15000t=0000f=040*r=230.wav,_040,99.84,0
A=FERw=15000t=0000f=040*r=231.wav,_040,65.82,0
A=FERw=15000t=0000f=040*r=28.wav,_040,99.72,0
A=FERw=15000t=0000f=040*r=29.wav,_040,20.32,0
A=FERw=15000t=0000f=040*r=33.wav,_040,97.82,0
A=FERw=15000t=0000f=040*r=34.wav,_040,99.9,0
A=FERw=15000t=0000f=040*r=36.wav,_040,86.12,0
A=FERw=15000t=0000f=040*r=37.wav,_040,100.0,0
A=FERw=15000t=0000f=040*r=38.wav,_040,99.96,0
A=FERw=15000t=0000f=040*r=42.wav,_040,69.12,0
A=FERw=15000t=0000f=040*r=43.wav,_040,99.92,0
A=FERw=15000t=0000f=040*r=50.wav,_040,100.0,0
A=FERw=15000t=0000f=040*r=61.wav,_040,100.0,0
A=FERw=15000t=0000f=040*r=62.wav,_040,100.0,0
A=FERw=15000t=0000f=040*r=63.wav,_040,100.0,0
A=FERw=15000t=0000f=040*r=64.wav,_040,100.0,0
A=FERw=15000t=0000f=040*r=65.wav,_040,99.96,0
A=FERw=15000t=0000f=040*r=66.wav,_040,100.0,0
A=FERw=15000t=0000f=040*r=67.wav,_040,100.0,0
A=FERw=15000t=0000f=040*r=68.wav,_040,100.0,0
A=FERw=15000t=0000f=040*r=69.wav,_040,100.0,0
A=FERw=15000t=0000f=040*r=70.wav,_040,100.0,0
A=FERw=15000t=0000f=040*r=71.wav,_040,100.0,0
A=FERw=15000t=0000f=040*r=72.wav,_040,100.0,0
A=FERw=15000t=0000f=040*r=73.wav,_040,100.0,0
A=FERw=15000t=0000f=040*r=74.wav,_040,100.0,0
A=FERw=15000t=0000f=040*r=75.wav,_040,100.0,0
A=FERw=15000t=0000f=040*r=76.wav,_040,100.0,0
A=FERw=15000t=0000f=040*r=77.wav,_040,100.0,0
A=FERw=15000t=0000f=040*r=78.wav,_040,100.0,0
A=FERw=15000t=0000f=040*r=79.wav,_040,100.0,0
A=FERw=15000t=0000f=040*r=80.wav,_040,100.0,0
A=FERw=15000t=0000f=040*r=81.wav,_040,100.0,0
A=FERw=15000t=0000f=040*r=82.wav,_040,100.0,0
A=FERw=15000t=0000f=040*r=83.wav,_040,100.0,0
A=FERw=15000t=0000f=040*r=84.wav,_040,100.0,0
A=FERw=15000t=0000f=040*r=85.wav,_040,100.0,0
A=FERw=15000t=0000f=040*r=86.wav,_040,100.0,0
A=FERw=15000t=0000f=040*r=87.wav,_040,100.0,0
A=FERw=15000t=0000f=040*r=88.wav,_040,100.0,0
A=FERw=15000t=0000f=040*r=89.wav,_040,100.0,0
A=FERw=15000t=0000f=040*r=90.wav,_040,100.0,0
A=FERw=15000t=0000f=040*r=91.wav,_040,100.0,0
A=FERw=15000t=0000f=040*r=92.wav,_040,100.0,0
A=FERw=15000t=0000f=040*r=93.wav,_040,100.0,0
A=FERw=15000t=0000f=040*r=94.wav,_040,100.0,0
A=FERw=15000t=0000f=040*r=95.wav,_040,100.0,0
A=FERw=15000t=0000f=040*r=96.wav,_040,100.0,0
A=FERw=15000t=0000f=040*r=97.wav,_040,100.0,0
A=FERw=15000t=0000f=040*r=98.wav,_040,100.0,0
A=FERw=15000t=0000f=040*r=99.wav,_040,100.0,0
A=FERw=15000t=0000f=040r=10.wav,_040,87.7,0
A=FERw=15000t=0000f=040r=101.wav,_040,23.0,0
A=FERw=15000t=0000f=040r=104.wav,_040,99.98,0
A=FERw=15000t=0000f=040r=105.wav,_040,99.46,0
A=FERw=15000t=0000f=040r=106.wav,_040,78.36,0
A=FERw=15000t=0000f=040r=107.wav,_040,100.0,0
A=FERw=15000t=0000f=040r=108.wav,_040,51.02,0
A=FERw=15000t=0000f=040r=109.wav,_040,100.0,0
A=FERw=15000t=0000f=040r=11.wav,_040,97.32,0
A=FERw=15000t=0000f=040r=110.wav,_040,100.0,0
A=FERw=15000t=0000f=040r=111.wav,_040,99.92,0
A=FERw=15000t=0000f=040r=112.wav,_040,100.0,0
A=FERw=15000t=0000f=040r=114.wav,_040,89.0,0
A=FERw=15000t=0000f=040r=115.wav,_040,100.0,0
A=FERw=15000t=0000f=040r=116.wav,_040,100.0,0
A=FERw=15000t=0000f=040r=117.wav,_040,97.2,0
A=FERw=15000t=0000f=040r=118.wav,_040,100.0,0
A=FERw=15000t=0000f=040r=119.wav,_040,100.0,0
A=FERw=15000t=0000f=040r=120.wav,_040,99.98,0
A=FERw=15000t=0000f=040r=121.wav,_040,100.0,0
A=FERw=15000t=0000f=040r=122.wav,_040,100.0,0
A=FERw=15000t=0000f=040r=123.wav,_040,99.86,0
A=FERw=15000t=0000f=040r=124.wav,_040,96.4,0
A=FERw=15000t=0000f=040r=125.wav,_040,99.96,0
A=FERw=15000t=0000f=040r=126.wav,_040,99.82,0
A=FERw=15000t=0000f=040r=127.wav,_040,100.0,0
A=FERw=15000t=0000f=040r=128.wav,_040,99.76,0
A=FERw=15000t=0000f=040r=129.wav,_040,98.8,0
A=FERw=15000t=0000f=040r=131.wav,_040,100.0,0
A=FERw=15000t=0000f=040r=138.wav,_040,99.94,0
A=FERw=15000t=0000f=040r=14.wav,_040,96.62,0
A=FERw=15000t=0000f=040r=140.wav,_040,97.84,0
A=FERw=15000t=0000f=040r=142.wav,_040,100.0,0
A=FERw=15000t=0000f=040r=143.wav,_040,100.0,0
A=FERw=15000t=0000f=040r=145.wav,_040,99.66,0
A=FERw=15000t=0000f=040r=146.wav,_040,99.9,0
A=FERw=15000t=0000f=040r=147.wav,_040,79.76,0
A=FERw=15000t=0000f=040r=148.wav,_040,95.62,0
A=FERw=15000t=0000f=040r=149.wav,_040,100.0,0
A=FERw=15000t=0000f=040r=150.wav,_040,100.0,0
A=FERw=15000t=0000f=040r=151.wav,_040,100.0,0
A=FERw=15000t=0000f=040r=152.wav,_040,96.8,0
A=FERw=15000t=0000f=040r=153.wav,_040,100.0,0
A=FERw=15000t=0000f=040r=154.wav,_040,98.5,0
A=FERw=15000t=0000f=040r=156.wav,_040,99.72,0
A=FERw=15000t=0000f=040r=157.wav,_040,49.18,0
A=FERw=15000t=0000f=040r=160.wav,_040,100.0,0
A=FERw=15000t=0000f=040r=162.wav,_040,99.96,0
A=FERw=15000t=0000f=040r=163.wav,_040,100.0,0
A=FERw=15000t=0000f=040r=164.wav,_040,100.0,0
A=FERw=15000t=0000f=040r=165.wav,_040,94.3,0
A=FERw=15000t=0000f=040r=166.wav,_040,100.0,0
A=FERw=15000t=0000f=040r=167.wav,_040,99.76,0
A=FERw=15000t=0000f=040r=168.wav,_040,100.0,0
A=FERw=15000t=0000f=040r=169.wav,_040,85.6,0
A=FERw=15000t=0000f=040r=170.wav,_040,100.0,0
A=FERw=15000t=0000f=040r=171.wav,_040,100.0,0
A=FERw=15000t=0000f=040r=172.wav,_040,99.98,0
A=FERw=15000t=0000f=040r=173.wav,_040,96.52,0
A=FERw=15000t=0000f=040r=174.wav,_040,100.0,0
A=FERw=15000t=0000f=040r=175.wav,_040,100.0,0
A=FERw=15000t=0000f=040r=176.wav,_040,100.0,0
A=FERw=15000t=0000f=040r=177.wav,_040,100.0,0
A=FERw=15000t=0000f=040r=178.wav,_040,100.0,0
A=FERw=15000t=0000f=040r=179.wav,_040,100.0,0
A=FERw=15000t=0000f=040r=180.wav,_040,100.0,0
A=FERw=15000t=0000f=040r=181.wav,_040,98.92,0
A=FERw=15000t=0000f=040r=182.wav,_040,99.6,0
A=FERw=15000t=0000f=040r=183.wav,_040,99.94,0
A=FERw=15000t=0000f=040r=184.wav,_040,81.88,0
A=FERw=15000t=0000f=040r=185.wav,_040,100.0,0
A=FERw=15000t=0000f=040r=186.wav,_040,99.62,0
A=FERw=15000t=0000f=040r=187.wav,_040,99.78,0
A=FERw=15000t=0000f=040r=188.wav,_040,99.98,0
A=FERw=15000t=0000f=040r=189.wav,_040,99.56,0
A=FERw=15000t=0000f=040r=190.wav,_040,100.0,0
A=FERw=15000t=0000f=040r=191.wav,_040,100.0,0
A=FERw=15000t=0000f=040r=192.wav,_040,100.0,0
A=FERw=15000t=0000f=040r=193.wav,_040,100.0,0
A=FERw=15000t=0000f=040r=194.wav,_040,100.0,0
A=FERw=15000t=0000f=040r=195.wav,_040,100.0,0
A=FERw=15000t=0000f=040r=196.wav,_040,100.0,0
A=FERw=15000t=0000f=040r=197.wav,_040,100.0,0
A=FERw=15000t=0000f=040r=198.wav,_040,100.0,0
A=FERw=15000t=0000f=040r=199.wav,_040,100.0,0
A=FERw=15000t=0000f=040r=2.wav,_040,11.36,0
A=FERw=15000t=0000f=040r=200.wav,_040,100.0,0
A=FERw=15000t=0000f=040r=201.wav,_040,100.0,0
A=FERw=15000t=0000f=040r=202.wav,_040,100.0,0
A=FERw=15000t=0000f=040r=203.wav,_040,100.0,0
A=FERw=15000t=0000f=040r=204.wav,_040,100.0,0
A=FERw=15000t=0000f=040r=206.wav,_040,100.0,0
A=FERw=15000t=0000f=040r=207.wav,_040,100.0,0
A=FERw=15000t=0000f=040r=208.wav,_040,100.0,0
A=FERw=15000t=0000f=040r=209.wav,_040,100.0,0
A=FERw=15000t=0000f=040r=210.wav,_040,100.0,0
A=FERw=15000t=0000f=040r=211.wav,_040,100.0,0
A=FERw=15000t=0000f=040r=212.wav,_040,100.0,0
A=FERw=15000t=0000f=040r=213.wav,_040,100.0,0
A=FERw=15000t=0000f=040r=214.wav,_040,100.0,0
A=FERw=15000t=0000f=040r=215.wav,_040,100.0,0
A=FERw=15000t=0000f=040r=216.wav,_040,100.0,0
A=FERw=15000t=0000f=040r=217.wav,_040,100.0,0
A=FERw=15000t=0000f=040r=218.wav,_040,99.98,0
A=FERw=15000t=0000f=040r=219.wav,_040,100.0,0
A=FERw=15000t=0000f=040r=22.wav,_040,70.06,0
A=FERw=15000t=0000f=040r=220.wav,_040,100.0,0
A=FERw=15000t=0000f=040r=221.wav,_040,99.96,0
A=FERw=15000t=0000f=040r=222.wav,_040,99.56,0
A=FERw=15000t=0000f=040r=223.wav,_040,99.02,0
A=FERw=15000t=0000f=040r=224.wav,_040,99.28,0
A=FERw=15000t=0000f=040r=225.wav,_040,46.52,0
A=FERw=15000t=0000f=040r=226.wav,_040,100.0,0
A=FERw=15000t=0000f=040r=227.wav,_040,52.8,0
A=FERw=15000t=0000f=040r=228.wav,_040,90.16,0
A=FERw=15000t=0000f=040r=229.wav,_040,100.0,0
A=FERw=15000t=0000f=040r=23.wav,_040,89.82,0
A=FERw=15000t=0000f=040r=230.wav,_040,100.0,0
A=FERw=15000t=0000f=040r=231.wav,_040,100.0,0
A=FERw=15000t=0000f=040r=232.wav,_040,100.0,0
A=FERw=15000t=0000f=040r=233.wav,_040,100.0,0
A=FERw=15000t=0000f=040r=234.wav,_040,100.0,0
A=FERw=15000t=0000f=040r=235.wav,_040,100.0,0
A=FERw=15000t=0000f=040r=236.wav,_040,0.68,0
A=FERw=15000t=0000f=040r=237.wav,_040,100.0,0
A=FERw=15000t=0000f=040r=238.wav,_040,99.46,0
A=FERw=15000t=0000f=040r=239.wav,_040,99.98,0
A=FERw=15000t=0000f=040r=240.wav,_040,100.0,0
A=FERw=15000t=0000f=040r=241.wav,_040,76.16,0
A=FERw=15000t=0000f=040r=242.wav,_040,100.0,0
A=FERw=15000t=0000f=040r=243.wav,_040,98.5,0
A=FERw=15000t=0000f=040r=244.wav,_040,99.76,0
A=FERw=15000t=0000f=040r=245.wav,_040,99.98,0
A=FERw=15000t=0000f=040r=246.wav,_040,100.0,0
A=FERw=15000t=0000f=040r=247.wav,_040,92.36,0
A=FERw=15000t=0000f=040r=248.wav,_040,100.0,0
A=FERw=15000t=0000f=040r=249.wav,_040,100.0,0
A=FERw=15000t=0000f=040r=250.wav,_040,100.0,0
A=FERw=15000t=0000f=040r=251.wav,_040,100.0,0
A=FERw=15000t=0000f=040r=252.wav,_040,100.0,0
A=FERw=15000t=0000f=040r=253.wav,_040,100.0,0
A=FERw=15000t=0000f=040r=254.wav,_040,100.0,0
A=FERw=15000t=0000f=040r=255.wav,_040,99.96,0
A=FERw=15000t=0000f=040r=256.wav,_040,100.0,0
A=FERw=15000t=0000f=040r=257.wav,_040,100.0,0
A=FERw=15000t=0000f=040r=258.wav,_040,100.0,0
A=FERw=15000t=0000f=040r=259.wav,_040,100.0,0
A=FERw=15000t=0000f=040r=260.wav,_040,100.0,0
A=FERw=15000t=0000f=040r=261.wav,_040,100.0,0
A=FERw=15000t=0000f=040r=262.wav,_040,100.0,0
A=FERw=15000t=0000f=040r=263.wav,_040,100.0,0
A=FERw=15000t=0000f=040r=264.wav,_040,100.0,0
A=FERw=15000t=0000f=040r=265.wav,_040,100.0,0
A=FERw=15000t=0000f=040r=266.wav,_040,100.0,0
A=FERw=15000t=0000f=040r=267.wav,_040,100.0,0
A=FERw=15000t=0000f=040r=268.wav,_040,100.0,0
A=FERw=15000t=0000f=040r=269.wav,_040,100.0,0
A=FERw=15000t=0000f=040r=270.wav,_040,100.0,0
A=FERw=15000t=0000f=040r=271.wav,_040,100.0,0
A=FERw=15000t=0000f=040r=272.wav,_040,100.0,0
A=FERw=15000t=0000f=040r=273.wav,_040,100.0,0
A=FERw=15000t=0000f=040r=274.wav,_040,100.0,0
A=FERw=15000t=0000f=040r=275.wav,_040,100.0,0
A=FERw=15000t=0000f=040r=276.wav,_040,100.0,0
A=FERw=15000t=0000f=040r=277.wav,_040,100.0,0
A=FERw=15000t=0000f=040r=278.wav,_040,100.0,0
A=FERw=15000t=0000f=040r=279.wav,_040,100.0,0
A=FERw=15000t=0000f=040r=28.wav,_040,88.78,0
A=FERw=15000t=0000f=040r=280.wav,_040,100.0,0
A=FERw=15000t=0000f=040r=281.wav,_040,100.0,0
A=FERw=15000t=0000f=040r=282.wav,_040,100.0,0
A=FERw=15000t=0000f=040r=283.wav,_040,100.0,0
A=FERw=15000t=0000f=040r=284.wav,_040,100.0,0
A=FERw=15000t=0000f=040r=285.wav,_040,100.0,0
A=FERw=15000t=0000f=040r=286.wav,_040,100.0,0
A=FERw=15000t=0000f=040r=287.wav,_040,100.0,0
A=FERw=15000t=0000f=040r=288.wav,_040,100.0,0
A=FERw=15000t=0000f=040r=289.wav,_040,100.0,0
A=FERw=15000t=0000f=040r=290.wav,_040,100.0,0
A=FERw=15000t=0000f=040r=291.wav,_040,100.0,0
A=FERw=15000t=0000f=040r=292.wav,_040,100.0,0
A=FERw=15000t=0000f=040r=293.wav,_040,100.0,0
A=FERw=15000t=0000f=040r=294.wav,_040,100.0,0
A=FERw=15000t=0000f=040r=295.wav,_040,100.0,0
A=FERw=15000t=0000f=040r=296.wav,_040,100.0,0
A=FERw=15000t=0000f=040r=297.wav,_040,6.52,0
A=FERw=15000t=0000f=040r=298.wav,_040,100.0,0
A=FERw=15000t=0000f=040r=299.wav,_040,100.0,0
A=FERw=15000t=0000f=040r=30.wav,_040,90.22,0
A=FERw=15000t=0000f=040r=300.wav,_040,100.0,0
A=FERw=15000t=0000f=040r=301.wav,_040,100.0,0
A=FERw=15000t=0000f=040r=302.wav,_040,100.0,0
A=FERw=15000t=0000f=040r=303.wav,_040,100.0,0
A=FERw=15000t=0000f=040r=304.wav,_040,100.0,0
A=FERw=15000t=0000f=040r=305.wav,_040,100.0,0
A=FERw=15000t=0000f=040r=306.wav,_040,100.0,0
A=FERw=15000t=0000f=040r=307.wav,_040,100.0,0
A=FERw=15000t=0000f=040r=308.wav,_040,100.0,0
A=FERw=15000t=0000f=040r=309.wav,_040,99.92,0
A=FERw=15000t=0000f=040r=310.wav,_040,100.0,0
A=FERw=15000t=0000f=040r=312.wav,_040,84.82,0
A=FERw=15000t=0000f=040r=316.wav,_040,98.46,0
A=FERw=15000t=0000f=040r=317.wav,_040,98.4,0
A=FERw=15000t=0000f=040r=318.wav,_040,81.44,0
A=FERw=15000t=0000f=040r=319.wav,_040,69.84,0
A=FERw=15000t=0000f=040r=321.wav,_040,78.3,0
A=FERw=15000t=0000f=040r=322.wav,_040,33.08,0
A=FERw=15000t=0000f=040r=325.wav,_040,99.78,0
A=FERw=15000t=0000f=040r=326.wav,_040,100.0,0
A=FERw=15000t=0000f=040r=333.wav,_040,99.74,0
A=FERw=15000t=0000f=040r=334.wav,_040,100.0,0
A=FERw=15000t=0000f=040r=336.wav,_040,72.62,0
A=FERw=15000t=0000f=040r=337.wav,_040,98.0,0
A=FERw=15000t=0000f=040r=34.wav,_040,99.96,0
A=FERw=15000t=0000f=040r=342.wav,_040,100.0,0
A=FERw=15000t=0000f=040r=345.wav,_040,100.0,0
A=FERw=15000t=0000f=040r=346.wav,_040,100.0,0
A=FERw=15000t=0000f=040r=349.wav,_040,99.98,0
A=FERw=15000t=0000f=040r=35.wav,_040,100.0,0
A=FERw=15000t=0000f=040r=350.wav,_040,100.0,0
A=FERw=15000t=0000f=040r=351.wav,_040,99.98,0
A=FERw=15000t=0000f=040r=352.wav,_040,99.18,0
A=FERw=15000t=0000f=040r=353.wav,_040,75.58,0
A=FERw=15000t=0000f=040r=354.wav,_040,15.26,0
A=FERw=15000t=0000f=040r=355.wav,_040,98.81,0
A=FERw=15000t=0000f=040r=356.wav,_040,100.0,0
A=FERw=15000t=0000f=040r=357.wav,_040,99.36,0
A=FERw=15000t=0000f=040r=358.wav,_040,100.0,0
A=FERw=15000t=0000f=040r=359.wav,_040,100.0,0
A=FERw=15000t=0000f=040r=360.wav,_040,100.0,0
A=FERw=15000t=0000f=040r=361.wav,_040,86.24,0
A=FERw=15000t=0000f=040r=362.wav,_040,100.0,0
A=FERw=15000t=0000f=040r=363.wav,_040,99.98,0
A=FERw=15000t=0000f=040r=364.wav,_040,85.5,0
A=FERw=15000t=0000f=040r=365.wav,_040,100.0,0
A=FERw=15000t=0000f=040r=366.wav,_040,100.0,0
A=FERw=15000t=0000f=040r=367.wav,_040,99.84,0
A=FERw=15000t=0000f=040r=368.wav,_040,100.0,0
A=FERw=15000t=0000f=040r=369.wav,_040,100.0,0
A=FERw=15000t=0000f=040r=370.wav,_040,99.98,0
A=FERw=15000t=0000f=040r=371.wav,_040,100.0,0
A=FERw=15000t=0000f=040r=372.wav,_040,99.46,0
A=FERw=15000t=0000f=040r=373.wav,_040,99.64,0
A=FERw=15000t=0000f=040r=374.wav,_040,100.0,0
A=FERw=15000t=0000f=040r=375.wav,_040,100.0,0
A=FERw=15000t=0000f=040r=376.wav,_040,99.92,0
A=FERw=15000t=0000f=040r=377.wav,_040,100.0,0
A=FERw=15000t=0000f=040r=378.wav,_040,99.9,0
A=FERw=15000t=0000f=040r=379.wav,_040,100.0,0
A=FERw=15000t=0000f=040r=380.wav,_040,85.96,0
A=FERw=15000t=0000f=040r=381.wav,_040,100.0,0
A=FERw=15000t=0000f=040r=382.wav,_040,100.0,0
A=FERw=15000t=0000f=040r=383.wav,_040,99.98,0
A=FERw=15000t=0000f=040r=384.wav,_040,100.0,0
A=FERw=15000t=0000f=040r=385.wav,_040,100.0,0
A=FERw=15000t=0000f=040r=386.wav,_040,98.86,0
A=FERw=15000t=0000f=040r=389.wav,_040,97.74,0
A=FERw=15000t=0000f=040r=39.wav,_040,30.4,0
A=FERw=15000t=0000f=040r=390.wav,_040,100.0,0
A=FERw=15000t=0000f=040r=392.wav,_040,52.78,0
A=FERw=15000t=0000f=040r=393.wav,_040,29.12,0
A=FERw=15000t=0000f=040r=394.wav,_040,100.0,0
A=FERw=15000t=0000f=040r=395.wav,_040,46.58,0
A=FERw=15000t=0000f=040r=396.wav,_040,95.36,0
A=FERw=15000t=0000f=040r=397.wav,_040,99.96,0
A=FERw=15000t=0000f=040r=399.wav,_040,100.0,0
A=FERw=15000t=0000f=040r=4.wav,_040,97.5,0
A=FERw=15000t=0000f=040r=400.wav,_040,100.0,0
A=FERw=15000t=0000f=040r=401.wav,_040,100.0,0
A=FERw=15000t=0000f=040r=402.wav,_040,99.98,0
A=FERw=15000t=0000f=040r=403.wav,_040,100.0,0
A=FERw=15000t=0000f=040r=404.wav,_040,100.0,0
A=FERw=15000t=0000f=040r=405.wav,_040,100.0,0
A=FERw=15000t=0000f=040r=406.wav,_040,100.0,0
A=FERw=15000t=0000f=040r=407.wav,_040,99.96,0
A=FERw=15000t=0000f=040r=408.wav,_040,100.0,0
A=FERw=15000t=0000f=040r=409.wav,_040,100.0,0
A=FERw=15000t=0000f=040r=410.wav,_040,100.0,0
A=FERw=15000t=0000f=040r=411.wav,_040,100.0,0
A=FERw=15000t=0000f=040r=412.wav,_040,100.0,0
A=FERw=15000t=0000f=040r=413.wav,_040,100.0,0
A=FERw=15000t=0000f=040r=414.wav,_040,100.0,0
A=FERw=15000t=0000f=040r=415.wav,_040,99.98,0
A=FERw=15000t=0000f=040r=418.wav,_040,99.24,0
A=FERw=15000t=0000f=040r=419.wav,_040,99.98,0
A=FERw=15000t=0000f=040r=420.wav,_040,99.94,0
A=FERw=15000t=0000f=040r=421.wav,_040,100.0,0
A=FERw=15000t=0000f=040r=422.wav,_040,99.34,0
A=FERw=15000t=0000f=040r=423.wav,_040,99.98,0
A=FERw=15000t=0000f=040r=424.wav,_040,46.48,0
A=FERw=15000t=0000f=040r=426.wav,_040,98.3,0
A=FERw=15000t=0000f=040r=43.wav,_040,22.84,0
A=FERw=15000t=0000f=040r=438.wav,_040,99.58,0
A=FERw=15000t=0000f=040r=439.wav,_040,100.0,0
A=FERw=15000t=0000f=040r=440.wav,_040,99.54,0
A=FERw=15000t=0000f=040r=441.wav,_040,100.0,0
A=FERw=15000t=0000f=040r=442.wav,_040,100.0,0
A=FERw=15000t=0000f=040r=443.wav,_040,100.0,0
A=FERw=15000t=0000f=040r=444.wav,_040,99.74,0
A=FERw=15000t=0000f=040r=445.wav,_040,100.0,0
A=FERw=15000t=0000f=040r=446.wav,_040,100.0,0
A=FERw=15000t=0000f=040r=447.wav,_040,89.52,0
A=FERw=15000t=0000f=040r=448.wav,_040,100.0,0
A=FERw=15000t=0000f=040r=449.wav,_040,95.4,0
A=FERw=15000t=0000f=040r=45.wav,_040,99.24,0
A=FERw=15000t=0000f=040r=450.wav,_040,100.0,0
A=FERw=15000t=0000f=040r=451.wav,_040,99.98,0
A=FERw=15000t=0000f=040r=452.wav,_040,99.52,0
A=FERw=15000t=0000f=040r=453.wav,_040,88.2,0
A=FERw=15000t=0000f=040r=456.wav,_040,100.0,0
A=FERw=15000t=0000f=040r=457.wav,_040,99.98,0
A=FERw=15000t=0000f=040r=458.wav,_040,100.0,0
A=FERw=15000t=0000f=040r=459.wav,_040,99.9,0
A=FERw=15000t=0000f=040r=460.wav,_040,100.0,0
A=FERw=15000t=0000f=040r=461.wav,_040,100.0,0
A=FERw=15000t=0000f=040r=462.wav,_040,98.78,0
A=FERw=15000t=0000f=040r=463.wav,_040,100.0,0
A=FERw=15000t=0000f=040r=464.wav,_040,93.82,0
A=FERw=15000t=0000f=040r=465.wav,_040,99.72,0
A=FERw=15000t=0000f=040r=466.wav,_040,100.0,0
A=FERw=15000t=0000f=040r=468.wav,_040,100.0,0
A=FERw=15000t=0000f=040r=474.wav,_040,23.86,0
A=FERw=15000t=0000f=040r=475.wav,_040,100.0,0
A=FERw=15000t=0000f=040r=476.wav,_040,70.6,0
A=FERw=15000t=0000f=040r=477.wav,_040,100.0,0
A=FERw=15000t=0000f=040r=480.wav,_040,78.24,0
A=FERw=15000t=0000f=040r=481.wav,_040,99.08,0
A=FERw=15000t=0000f=040r=482.wav,_040,100.0,0
A=FERw=15000t=0000f=040r=483.wav,_040,100.0,0
A=FERw=15000t=0000f=040r=484.wav,_040,78.32,0
A=FERw=15000t=0000f=040r=485.wav,_040,63.94,0
A=FERw=15000t=0000f=040r=487.wav,_040,98.68,0
A=FERw=15000t=0000f=040r=49.wav,_040,85.02,0
A=FERw=15000t=0000f=040r=494.wav,_040,100.0,0
A=FERw=15000t=0000f=040r=495.wav,_040,100.0,0
A=FERw=15000t=0000f=040r=498.wav,_040,100.0,0
A=FERw=15000t=0000f=040r=499.wav,_040,100.0,0
A=FERw=15000t=0000f=040r=5.wav,_040,100.0,0
A=FERw=15000t=0000f=040r=50.wav,_040,98.26,0
A=FERw=15000t=0000f=040r=500.wav,_040,99.98,0
A=FERw=15000t=0000f=040r=501.wav,_040,100.0,0
A=FERw=15000t=0000f=040r=502.wav,_040,100.0,0
A=FERw=15000t=0000f=040r=503.wav,_040,100.0,0
A=FERw=15000t=0000f=040r=504.wav,_040,99.72,0
A=FERw=15000t=0000f=040r=505.wav,_040,100.0,0
A=FERw=15000t=0000f=040r=506.wav,_040,100.0,0
A=FERw=15000t=0000f=040r=507.wav,_040,99.98,0
A=FERw=15000t=0000f=040r=508.wav,_040,100.0,0
A=FERw=15000t=0000f=040r=509.wav,_040,100.0,0
A=FERw=15000t=0000f=040r=55.wav,_040,47.42,0
A=FERw=15000t=0000f=040r=57.wav,_040,92.98,0
A=FERw=15000t=0000f=040r=6.wav,_040,100.0,0
A=FERw=15000t=0000f=040r=63.wav,_040,71.82,0
A=FERw=15000t=0000f=040r=81.wav,_040,44.68,0
A=FERw=15000t=0000f=040r=82.wav,_040,42.54,0
A=FERw=15000t=0000f=040r=84.wav,_040,97.88,0
A=FERw=15000t=0000f=040r=87.wav,_040,99.8,0
A=FERw=15000t=0000f=040r=89.wav,_040,95.38,0
A=FERw=15000t=0000f=040r=90.wav,_040,99.96,0
A=FERw=15000t=0000f=040r=91.wav,_040,99.94,0
A=FERw=15000t=0000f=040r=93.wav,_040,83.34,0
A=FERw=15000t=0000f=040r=94.wav,_040,99.3,0
A=FERw=15000t=0000f=040r=95.wav,_040,95.6,0
A=FERw=15000t=0000f=040r=96.wav,_040,28.14,0
A=FERw=15000t=0000f=040r=97.wav,_040,12.96,0
A=FERw=15000t=0000f=040r=98.wav,_040,93.1,0
A=FERw=15000t=0000f=040r=99.wav,_040,92.96,0
A=gr7w=15000t=14800f=040r=10.wav,_040,99.74,0
A=gr7w=15000t=14800f=040r=100.wav,_040,100.0,0
A=gr7w=15000t=14800f=040r=101.wav,_040,100.0,0
A=gr7w=15000t=14800f=040r=102.wav,_040,100.0,0
A=gr7w=15000t=14800f=040r=11.wav,_040,99.98,0
A=gr7w=15000t=14800f=040r=12.wav,_040,99.36,0
A=gr7w=15000t=14800f=040r=13.wav,_040,100.0,0
A=gr7w=15000t=14800f=040r=14.wav,_040,100.0,0
A=gr7w=15000t=14800f=040r=15.wav,_040,100.0,0
A=gr7w=15000t=14800f=040r=16.wav,_040,100.0,0
A=gr7w=15000t=14800f=040r=17.wav,_040,100.0,0
A=gr7w=15000t=14800f=040r=18.wav,_040,100.0,0
A=gr7w=15000t=14800f=040r=19.wav,_040,100.0,0
A=gr7w=15000t=14800f=040r=2.wav,_040,93.74,0
A=gr7w=15000t=14800f=040r=20.wav,_040,100.0,0
A=gr7w=15000t=14800f=040r=21.wav,_040,100.0,0
A=gr7w=15000t=14800f=040r=22.wav,_040,100.0,0
A=gr7w=15000t=14800f=040r=23.wav,_040,100.0,0
A=gr7w=15000t=14800f=040r=24.wav,_040,100.0,0
A=gr7w=15000t=14800f=040r=25.wav,_040,100.0,0
A=gr7w=15000t=14800f=040r=26.wav,_040,100.0,0
A=gr7w=15000t=14800f=040r=27.wav,_040,99.98,0
A=gr7w=15000t=14800f=040r=28.wav,_040,100.0,0
A=gr7w=15000t=14800f=040r=29.wav,_040,100.0,0
A=gr7w=15000t=14800f=040r=30.wav,_040,100.0,0
A=gr7w=15000t=14800f=040r=31.wav,_040,100.0,0
A=gr7w=15000t=14800f=040r=32.wav,_040,99.98,0
A=gr7w=15000t=14800f=040r=33.wav,_040,100.0,0
A=gr7w=15000t=14800f=040r=34.wav,_040,100.0,0
A=gr7w=15000t=14800f=040r=35.wav,_040,100.0,0
A=gr7w=15000t=14800f=040r=36.wav,_040,100.0,0
A=gr7w=15000t=14800f=040r=37.wav,_040,100.0,0
A=gr7w=15000t=14800f=040r=38.wav,_040,100.0,0
A=gr7w=15000t=14800f=040r=39.wav,_040,100.0,0
A=gr7w=15000t=14800f=040r=4.wav,_040,100.0,0
A=gr7w=15000t=14800f=040r=40.wav,_040,100.0,0
A=gr7w=15000t=14800f=040r=41.wav,_040,100.0,0
A=gr7w=15000t=14800f=040r=42.wav,_040,100.0,0
A=gr7w=15000t=14800f=040r=43.wav,_040,100.0,0
A=gr7w=15000t=14800f=040r=44.wav,_040,94.4,0
A=gr7w=15000t=14800f=040r=45.wav,_040,100.0,0
A=gr7w=15000t=14800f=040r=46.wav,_040,100.0,0
A=gr7w=15000t=14800f=040r=47.wav,_040,100.0,0
A=gr7w=15000t=14800f=040r=48.wav,_040,99.98,0
A=gr7w=15000t=14800f=040r=49.wav,_040,100.0,0
A=gr7w=15000t=14800f=040r=5.wav,_040,100.0,0
A=gr7w=15000t=14800f=040r=50.wav,_040,100.0,0
A=gr7w=15000t=14800f=040r=51.wav,_040,100.0,0
A=gr7w=15000t=14800f=040r=52.wav,_040,100.0,0
A=gr7w=15000t=14800f=040r=54.wav,_040,100.0,0
A=gr7w=15000t=14800f=040r=55.wav,_040,100.0,0
A=gr7w=15000t=14800f=040r=56.wav,_040,100.0,0
A=gr7w=15000t=14800f=040r=57.wav,_040,100.0,0
A=gr7w=15000t=14800f=040r=58.wav,_040,100.0,0
A=gr7w=15000t=14800f=040r=59.wav,_040,100.0,0
A=gr7w=15000t=14800f=040r=6.wav,_040,100.0,0
A=gr7w=15000t=14800f=040r=60.wav,_040,99.72,0
A=gr7w=15000t=14800f=040r=61.wav,_040,100.0,0
A=gr7w=15000t=14800f=040r=62.wav,_040,94.34,0
A=gr7w=15000t=14800f=040r=63.wav,_040,100.0,0
A=gr7w=15000t=14800f=040r=64.wav,_040,100.0,0
A=gr7w=15000t=14800f=040r=65.wav,_040,100.0,0
A=gr7w=15000t=14800f=040r=66.wav,_040,100.0,0
A=gr7w=15000t=14800f=040r=67.wav,_040,100.0,0
A=gr7w=15000t=14800f=040r=68.wav,_040,100.0,0
A=gr7w=15000t=14800f=040r=69.wav,_040,100.0,0
A=gr7w=15000t=14800f=040r=7.wav,_040,100.0,0
A=gr7w=15000t=14800f=040r=70.wav,_040,100.0,0
A=gr7w=15000t=14800f=040r=71.wav,_040,100.0,0
A=gr7w=15000t=14800f=040r=72.wav,_040,100.0,0
A=gr7w=15000t=14800f=040r=73.wav,_040,100.0,0
A=gr7w=15000t=14800f=040r=74.wav,_040,100.0,0
A=gr7w=15000t=14800f=040r=75.wav,_040,100.0,0
A=gr7w=15000t=14800f=040r=76.wav,_040,100.0,0
A=gr7w=15000t=14800f=040r=78.wav,_040,100.0,0
A=gr7w=15000t=14800f=040r=79.wav,_040,100.0,0
A=gr7w=15000t=14800f=040r=8.wav,_040,100.0,0
A=gr7w=15000t=14800f=040r=80.wav,_040,100.0,0
A=gr7w=15000t=14800f=040r=81.wav,_040,81.02,0
A=gr7w=15000t=14800f=040r=82.wav,_040,0.4,0
A=gr7w=15000t=14800f=040r=83.wav,_040,100.0,0
A=gr7w=15000t=14800f=040r=84.wav,_040,100.0,0
A=gr7w=15000t=14800f=040r=85.wav,_040,100.0,0
A=gr7w=15000t=14800f=040r=86.wav,_040,100.0,0
A=gr7w=15000t=14800f=040r=87.wav,_040,98.8,0
A=gr7w=15000t=14800f=040r=88.wav,_040,100.0,0
A=gr7w=15000t=14800f=040r=89.wav,_040,100.0,0
A=gr7w=15000t=14800f=040r=9.wav,_040,99.46,0
A=gr7w=15000t=14800f=040r=90.wav,_040,100.0,0
A=gr7w=15000t=14800f=040r=91.wav,_040,100.0,0
A=gr7w=15000t=14800f=040r=92.wav,_040,100.0,0
A=gr7w=15000t=14800f=040r=93.wav,_040,100.0,0
A=gr7w=15000t=14800f=040r=94.wav,_040,100.0,0
A=gr7w=15000t=14800f=040r=95.wav,_040,100.0,0
A=gr7w=15000t=14800f=040r=97.wav,_040,100.0,0
A=gr7w=15000t=14800f=040r=98.wav,_040,100.0,0
A=gr7w=15000t=14800f=040r=99.wav,_040,100.0,0
A=gr8w=15000t=14400f=040r=10.wav,_040,100.0,0
A=gr8w=15000t=14400f=040r=100.wav,_040,100.0,0
A=gr8w=15000t=14400f=040r=101.wav,_040,100.0,0
A=gr8w=15000t=14400f=040r=102.wav,_040,100.0,0
A=gr8w=15000t=14400f=040r=103.wav,_040,100.0,0
A=gr8w=15000t=14400f=040r=104.wav,_040,100.0,0
A=gr8w=15000t=14400f=040r=105.wav,_040,100.0,0
A=gr8w=15000t=14400f=040r=106.wav,_040,100.0,0
A=gr8w=15000t=14400f=040r=107.wav,_040,100.0,0
A=gr8w=15000t=14400f=040r=108.wav,_040,100.0,0
A=gr8w=15000t=14400f=040r=11.wav,_040,100.0,0
A=gr8w=15000t=14400f=040r=12.wav,_040,100.0,0
A=gr8w=15000t=14400f=040r=13.wav,_040,100.0,0
A=gr8w=15000t=14400f=040r=14.wav,_040,100.0,0
A=gr8w=15000t=14400f=040r=15.wav,_040,100.0,0
A=gr8w=15000t=14400f=040r=16.wav,_040,100.0,0
A=gr8w=15000t=14400f=040r=18.wav,_040,100.0,0
A=gr8w=15000t=14400f=040r=19.wav,_040,100.0,0
A=gr8w=15000t=14400f=040r=20.wav,_040,100.0,0
A=gr8w=15000t=14400f=040r=21.wav,_040,99.96,0
A=gr8w=15000t=14400f=040r=22.wav,_040,99.94,0
A=gr8w=15000t=14400f=040r=23.wav,_040,88.98,0
A=gr8w=15000t=14400f=040r=24.wav,_040,100.0,0
A=gr8w=15000t=14400f=040r=25.wav,_040,100.0,0
A=gr8w=15000t=14400f=040r=26.wav,_040,100.0,0
A=gr8w=15000t=14400f=040r=27.wav,_040,100.0,0
A=gr8w=15000t=14400f=040r=28.wav,_040,100.0,0
A=gr8w=15000t=14400f=040r=29.wav,_040,100.0,0
A=gr8w=15000t=14400f=040r=3.wav,_040,100.0,0
A=gr8w=15000t=14400f=040r=30.wav,_040,100.0,0
A=gr8w=15000t=14400f=040r=31.wav,_040,99.44,0
A=gr8w=15000t=14400f=040r=32.wav,_040,100.0,0
A=gr8w=15000t=14400f=040r=33.wav,_040,100.0,0
A=gr8w=15000t=14400f=040r=34.wav,_040,100.0,0
A=gr8w=15000t=14400f=040r=35.wav,_040,100.0,0
A=gr8w=15000t=14400f=040r=36.wav,_040,19.58,0
A=gr8w=15000t=14400f=040r=37.wav,_040,100.0,0
A=gr8w=15000t=14400f=040r=39.wav,_040,99.98,0
A=gr8w=15000t=14400f=040r=40.wav,_040,100.0,0
A=gr8w=15000t=14400f=040r=41.wav,_040,100.0,0
A=gr8w=15000t=14400f=040r=42.wav,_040,100.0,0
A=gr8w=15000t=14400f=040r=43.wav,_040,100.0,0
A=gr8w=15000t=14400f=040r=44.wav,_040,100.0,0
A=gr8w=15000t=14400f=040r=45.wav,_040,100.0,0
A=gr8w=15000t=14400f=040r=46.wav,_040,100.0,0
A=gr8w=15000t=14400f=040r=47.wav,_040,100.0,0
A=gr8w=15000t=14400f=040r=48.wav,_040,100.0,0
A=gr8w=15000t=14400f=040r=49.wav,_040,100.0,0
A=gr8w=15000t=14400f=040r=5.wav,_040,100.0,0
A=gr8w=15000t=14400f=040r=50.wav,_040,100.0,0
A=gr8w=15000t=14400f=040r=51.wav,_040,100.0,0
A=gr8w=15000t=14400f=040r=52.wav,_040,100.0,0
A=gr8w=15000t=14400f=040r=54.wav,_040,100.0,0
A=gr8w=15000t=14400f=040r=55.wav,_040,100.0,0
A=gr8w=15000t=14400f=040r=56.wav,_040,100.0,0
A=gr8w=15000t=14400f=040r=57.wav,_040,100.0,0
A=gr8w=15000t=14400f=040r=58.wav,_040,100.0,0
A=gr8w=15000t=14400f=040r=59.wav,_040,100.0,0
A=gr8w=15000t=14400f=040r=6.wav,_040,100.0,0
A=gr8w=15000t=14400f=040r=60.wav,_040,100.0,0
A=gr8w=15000t=14400f=040r=61.wav,_040,100.0,0
A=gr8w=15000t=14400f=040r=62.wav,_040,100.0,0
A=gr8w=15000t=14400f=040r=63.wav,_040,100.0,0
A=gr8w=15000t=14400f=040r=64.wav,_040,100.0,0
A=gr8w=15000t=14400f=040r=65.wav,_040,100.0,0
A=gr8w=15000t=14400f=040r=66.wav,_040,99.18,0
A=gr8w=15000t=14400f=040r=68.wav,_040,99.66,0
A=gr8w=15000t=14400f=040r=69.wav,_040,100.0,0
A=gr8w=15000t=14400f=040r=7.wav,_040,100.0,0
A=gr8w=15000t=14400f=040r=70.wav,_040,100.0,0
A=gr8w=15000t=14400f=040r=71.wav,_040,100.0,0
A=gr8w=15000t=14400f=040r=72.wav,_040,100.0,0
A=gr8w=15000t=14400f=040r=73.wav,_040,100.0,0
A=gr8w=15000t=14400f=040r=74.wav,_040,100.0,0
A=gr8w=15000t=14400f=040r=75.wav,_040,100.0,0
A=gr8w=15000t=14400f=040r=76.wav,_040,100.0,0
A=gr8w=15000t=14400f=040r=77.wav,_040,100.0,0
A=gr8w=15000t=14400f=040r=78.wav,_040,100.0,0
A=gr8w=15000t=14400f=040r=79.wav,_040,100.0,0
A=gr8w=15000t=14400f=040r=8.wav,_040,100.0,0
A=gr8w=15000t=14400f=040r=80.wav,_040,100.0,0
A=gr8w=15000t=14400f=040r=81.wav,_040,100.0,0
A=gr8w=15000t=14400f=040r=82.wav,_040,100.0,0
A=gr8w=15000t=14400f=040r=83.wav,_040,100.0,0
A=gr8w=15000t=14400f=040r=84.wav,_040,100.0,0
A=gr8w=15000t=14400f=040r=85.wav,_040,100.0,0
A=gr8w=15000t=14400f=040r=86.wav,_040,100.0,0
A=gr8w=15000t=14400f=040r=87.wav,_040,100.0,0
A=gr8w=15000t=14400f=040r=88.wav,_040,100.0,0
A=gr8w=15000t=14400f=040r=89.wav,_040,100.0,0
A=gr8w=15000t=14400f=040r=9.wav,_040,100.0,0
A=gr8w=15000t=14400f=040r=90.wav,_040,100.0,0
A=gr8w=15000t=14400f=040r=91.wav,_040,100.0,0
A=gr8w=15000t=14400f=040r=92.wav,_040,100.0,0
A=gr8w=15000t=14400f=040r=93.wav,_040,100.0,0
A=gr8w=15000t=14400f=040r=94.wav,_040,100.0,0
A=gr8w=15000t=14400f=040r=97.wav,_040,100.0,0
A=gr8w=15000t=14400f=040r=98.wav,_040,100.0,0
A=gr8w=15000t=14400f=040r=99.wav,_040,100.0,0
A=ge1w=15000t=15500f=050r=126.wav,_050,55.24,0
A=ge1w=15000t=15500f=050r=404.wav,_050,84.26,0
A=ge1w=15000t=15500f=050r=614.wav,_050,21.58,0
A=gerw=15000t=15500f=050r=02.wav,_050,70.78,0
A=gr5w=15000t=15500f=050r=10.wav,_050,84.66,0
A=gr5w=15000t=15500f=050r=11.wav,_050,34.36,0
A=gr5w=15000t=15500f=050r=24.wav,_050,11.42,0
A=gr5w=15000t=15500f=050r=32.wav,_050,57.44,0
A=tm2w=15000t=14400f=050r=04.wav,_050,100.0,0
A=tm2w=15000t=14400f=050r=07.wav,_050,97.84,0
A=tm2w=15000t=14400f=050r=08.wav,_050,83.2,0
A=tm2w=15000t=15500f=050r=01.wav,_050,83.66,0
A=tm2w=15000t=15500f=050r=09.wav,_050,85.8,0
A=tm3w=15000t=14400f=050r=02.wav,_050,88.58,0
A=tm3w=15000t=14400f=050r=04.wav,_050,58.2,0
A=tm3w=15000t=14400f=050r=06.wav,_050,100.0,0
A=tm3w=15000t=15300f=050r=03.wav,_050,99.68,0
A=tm3w=15000t=15500f=050r=07.wav,_050,99.22,0
A=ge1w=15000t=14500f=060r=605.wav,_060,100.0,0
A=ge1w=15000t=14500f=060r=608.wav,_060,99.7,0
A=gerw=15000t=14900f=060r=02.wav,_060,100.0,0
A=gr5w=15000t=14900f=060r=31.wav,_060,16.78,0
A=gr5w=15000t=14900f=060r=33.wav,_060,60.82,0
A=gr5w=15000t=14900f=060r=34.wav,_060,100.0,0
A=gr5w=15000t=14900f=060r=35.wav,_060,100.0,0
A=gr5w=15000t=14900f=060r=36.wav,_060,99.96,0
A=gr5w=15000t=14900f=060r=37.wav,_060,100.0,0
A=gr5w=15000t=14900f=060r=38.wav,_060,96.14,0
A=iphw=15000t=14500f=060r=03.wav,_060,99.88,0
A=tm2w=15000t=14500f=060r=01.wav,_060,99.16,0
A=tm2w=15000t=14500f=060r=03.wav,_060,100.0,0
A=tm2w=15000t=14500f=060r=07.wav,_060,100.0,0
A=tm2w=15000t=14900f=060r=01.wav,_060,100.0,0
A=tm2w=15000t=14900f=060r=06.wav,_060,100.0,0
A=tm2w=15000t=14900f=060r=08.wav,_060,100.0,0
A=tm3w=15000t=14500f=060r=01.wav,_060,100.0,0
A=tm3w=15000t=14500f=060r=03.wav,_060,100.0,0
A=tm3w=15000t=14500f=060r=05.wav,_060,100.0,0
A=tm3w=15000t=14500f=060r=07.wav,_060,99.96,0
A=tm3w=15000t=14900f=060r=04.wav,_060,100.0,0
A=tm3w=15000t=14900f=060r=06.wav,_060,100.0,0
A=tm3w=15000t=14900f=060r=08.wav,_060,99.5,0
A=tm8w=15000t=14500f=060r=01.wav,_060,100.0,0
A=tm8w=15000t=14500f=060r=03.wav,_060,81.42,0
A=gr5w=15000t=14000f=070r=15.wav,_070,22.94,0
A=gr5w=15000t=14000f=070r=2.wav,_070,14.64,0
A=gr5w=15000t=14000f=070r=42.wav,_070,99.94,0
A=gr5w=15000t=14000f=070r=6.wav,_070,19.64,0
A=iphw=15000t=14500f=070r=03.wav,_070,99.98,0
A=iphw=15000t=14600f=070r=04.wav,_070,97.34,0
A=tm2w=15000t=14600f=070r=04.wav,_070,100.0,0
A=tm3w=15000t=14500f=070r=05.wav,_070,99.82,0
A=tm3w=15000t=14600f=070r=02.wav,_070,100.0,0
A=tm8w=15000t=14600f=070r=04.wav,_070,99.34,0
A=ge1w=15000t=14900f=080r=134.wav,_080,65.1,0
A=iphw=15000t=14600f=080r=04.wav,_080,99.5,0
A=jr1w=15000t=14600f=080r=04.wav,_080,4.46,0
A=tm2w=15000t=14900f=080r=03.wav,_080,100.0,0
A=ge1w=15000t=15200f=090r=90.wav,_090,99.98,0
A=iphw=15000t=14500f=090r=03.wav,_090,78.94,0
A=tm8w=15000t=15200f=090r=05.wav,_090,40.48,0
